timeStamp,elapsed,label,responseCode,responseMessage,threadName,dataType,success,failureMessage,bytes,sentBytes,grpThreads,allThreads,URL,Latency,IdleTime,Connect
1689302475132,233,HTTP Request,200,OK,Quarkus 3-1,text,true,,74645,84651,1,1,http://benchmark-quarkus-ita-exp.apps.ocpdevgra.dti.co.id/v1/sort,194,0,20
1689302475366,143,HTTP Request,200,OK,Quarkus 3-1,text,true,,74630,84651,1,1,http://benchmark-quarkus-ita-exp.apps.ocpdevgra.dti.co.id/v1/sort,125,0,0
1689302475511,145,HTTP Request,200,OK,Quarkus 3-1,text,true,,74630,84651,1,1,http://benchmark-quarkus-ita-exp.apps.ocpdevgra.dti.co.id/v1/sort,127,0,0
1689302475658,147,HTTP Request,200,OK,Quarkus 3-1,text,true,,74630,84651,1,1,http://benchmark-quarkus-ita-exp.apps.ocpdevgra.dti.co.id/v1/sort,128,0,0
1689302475806,158,HTTP Request,200,OK,Quarkus 3-1,text,true,,74638,84651,1,1,http://benchmark-quarkus-ita-exp.apps.ocpdevgra.dti.co.id/v1/sort,133,0,0
1689302475966,147,HTTP Request,200,OK,Quarkus 3-1,text,true,,74630,84651,1,1,http://benchmark-quarkus-ita-exp.apps.ocpdevgra.dti.co.id/v1/sort,128,0,0
1689302476115,136,HTTP Request,200,OK,Quarkus 3-1,text,true,,74637,84651,1,1,http://benchmark-quarkus-ita-exp.apps.ocpdevgra.dti.co.id/v1/sort,131,0,0
1689302476253,133,HTTP Request,200,OK,Quarkus 3-1,text,true,,74630,84651,1,1,http://benchmark-quarkus-ita-exp.apps.ocpdevgra.dti.co.id/v1/sort,127,0,0
1689302476388,132,HTTP Request,200,OK,Quarkus 3-1,text,true,,74630,84651,1,1,http://benchmark-quarkus-ita-exp.apps.ocpdevgra.dti.co.id/v1/sort,127,0,0
1689302476522,132,HTTP Request,200,OK,Quarkus 3-1,text,true,,74651,84651,1,1,http://benchmark-quarkus-ita-exp.apps.ocpdevgra.dti.co.id/v1/sort,126,0,0
1689302476656,133,HTTP Request,200,OK,Quarkus 3-1,text,true,,74638,84651,1,1,http://benchmark-quarkus-ita-exp.apps.ocpdevgra.dti.co.id/v1/sort,127,0,0
1689302476790,131,HTTP Request,200,OK,Quarkus 3-1,text,true,,74630,84651,1,1,http://benchmark-quarkus-ita-exp.apps.ocpdevgra.dti.co.id/v1/sort,125,0,0
1689302476923,130,HTTP Request,200,OK,Quarkus 3-1,text,true,,74643,84651,1,1,http://benchmark-quarkus-ita-exp.apps.ocpdevgra.dti.co.id/v1/sort,125,0,0
1689302477055,141,HTTP Request,200,OK,Quarkus 3-1,text,true,,74630,84651,1,1,http://benchmark-quarkus-ita-exp.apps.ocpdevgra.dti.co.id/v1/sort,135,0,0
1689302477198,131,HTTP Request,200,OK,Quarkus 3-1,text,true,,74630,84651,1,1,http://benchmark-quarkus-ita-exp.apps.ocpdevgra.dti.co.id/v1/sort,126,0,0
1689302477331,130,HTTP Request,200,OK,Quarkus 3-1,text,true,,74630,84651,1,1,http://benchmark-quarkus-ita-exp.apps.ocpdevgra.dti.co.id/v1/sort,124,0,0
1689302477463,131,HTTP Request,200,OK,Quarkus 3-1,text,true,,74637,84651,1,1,http://benchmark-quarkus-ita-exp.apps.ocpdevgra.dti.co.id/v1/sort,125,0,0
1689302477596,131,HTTP Request,200,OK,Quarkus 3-1,text,true,,74630,84651,1,1,http://benchmark-quarkus-ita-exp.apps.ocpdevgra.dti.co.id/v1/sort,126,0,0
1689302477728,131,HTTP Request,200,OK,Quarkus 3-1,text,true,,74645,84651,1,1,http://benchmark-quarkus-ita-exp.apps.ocpdevgra.dti.co.id/v1/sort,126,0,0
1689302477860,133,HTTP Request,200,OK,Quarkus 3-1,text,true,,74630,84651,1,1,http://benchmark-quarkus-ita-exp.apps.ocpdevgra.dti.co.id/v1/sort,128,0,0
1689302477994,130,HTTP Request,200,OK,Quarkus 3-1,text,true,,74652,84651,1,1,http://benchmark-quarkus-ita-exp.apps.ocpdevgra.dti.co.id/v1/sort,125,0,0
1689302478126,133,HTTP Request,200,OK,Quarkus 3-1,text,true,,74638,84651,1,1,http://benchmark-quarkus-ita-exp.apps.ocpdevgra.dti.co.id/v1/sort,128,0,0
1689302478261,131,HTTP Request,200,OK,Quarkus 3-1,text,true,,74630,84651,1,1,http://benchmark-quarkus-ita-exp.apps.ocpdevgra.dti.co.id/v1/sort,125,0,0
1689302478394,130,HTTP Request,200,OK,Quarkus 3-1,text,true,,74630,84651,1,1,http://benchmark-quarkus-ita-exp.apps.ocpdevgra.dti.co.id/v1/sort,125,0,0
1689302478526,132,HTTP Request,200,OK,Quarkus 3-1,text,true,,74630,84651,1,1,http://benchmark-quarkus-ita-exp.apps.ocpdevgra.dti.co.id/v1/sort,126,0,0
1689302478660,131,HTTP Request,200,OK,Quarkus 3-1,text,true,,74630,84651,1,1,http://benchmark-quarkus-ita-exp.apps.ocpdevgra.dti.co.id/v1/sort,125,0,0
1689302478792,130,HTTP Request,200,OK,Quarkus 3-1,text,true,,74630,84651,1,1,http://benchmark-quarkus-ita-exp.apps.ocpdevgra.dti.co.id/v1/sort,124,0,0
1689302478924,132,HTTP Request,200,OK,Quarkus 3-1,text,true,,74630,84651,1,1,http://benchmark-quarkus-ita-exp.apps.ocpdevgra.dti.co.id/v1/sort,126,0,0
1689302479057,132,HTTP Request,200,OK,Quarkus 3-1,text,true,,74629,84651,1,1,http://benchmark-quarkus-ita-exp.apps.ocpdevgra.dti.co.id/v1/sort,126,0,0
1689302479190,133,HTTP Request,200,OK,Quarkus 3-1,text,true,,74630,84651,1,1,http://benchmark-quarkus-ita-exp.apps.ocpdevgra.dti.co.id/v1/sort,128,0,0
1689302479325,130,HTTP Request,200,OK,Quarkus 3-1,text,true,,74630,84651,1,1,http://benchmark-quarkus-ita-exp.apps.ocpdevgra.dti.co.id/v1/sort,125,0,0
1689302479457,131,HTTP Request,200,OK,Quarkus 3-1,text,true,,74630,84651,1,1,http://benchmark-quarkus-ita-exp.apps.ocpdevgra.dti.co.id/v1/sort,125,0,0
1689302479590,133,HTTP Request,200,OK,Quarkus 3-1,text,true,,74630,84651,1,1,http://benchmark-quarkus-ita-exp.apps.ocpdevgra.dti.co.id/v1/sort,127,0,0
1689302479725,130,HTTP Request,200,OK,Quarkus 3-1,text,true,,74637,84651,1,1,http://benchmark-quarkus-ita-exp.apps.ocpdevgra.dti.co.id/v1/sort,125,0,0
1689302479857,130,HTTP Request,200,OK,Quarkus 3-1,text,true,,74630,84651,1,1,http://benchmark-quarkus-ita-exp.apps.ocpdevgra.dti.co.id/v1/sort,124,0,0
1689302479989,132,HTTP Request,200,OK,Quarkus 3-1,text,true,,74630,84651,1,1,http://benchmark-quarkus-ita-exp.apps.ocpdevgra.dti.co.id/v1/sort,126,0,0
1689302480123,130,HTTP Request,200,OK,Quarkus 3-1,text,true,,74630,84651,1,1,http://benchmark-quarkus-ita-exp.apps.ocpdevgra.dti.co.id/v1/sort,124,0,0
1689302480254,131,HTTP Request,200,OK,Quarkus 3-1,text,true,,74637,84651,1,1,http://benchmark-quarkus-ita-exp.apps.ocpdevgra.dti.co.id/v1/sort,126,0,0
1689302480386,134,HTTP Request,200,OK,Quarkus 3-1,text,true,,74637,84651,1,1,http://benchmark-quarkus-ita-exp.apps.ocpdevgra.dti.co.id/v1/sort,129,0,0
1689302480522,131,HTTP Request,200,OK,Quarkus 3-1,text,true,,74630,84651,1,1,http://benchmark-quarkus-ita-exp.apps.ocpdevgra.dti.co.id/v1/sort,125,0,0
1689302480654,131,HTTP Request,200,OK,Quarkus 3-1,text,true,,74637,84651,1,1,http://benchmark-quarkus-ita-exp.apps.ocpdevgra.dti.co.id/v1/sort,125,0,0
1689302480787,130,HTTP Request,200,OK,Quarkus 3-1,text,true,,74630,84651,1,1,http://benchmark-quarkus-ita-exp.apps.ocpdevgra.dti.co.id/v1/sort,125,0,0
1689302480919,133,HTTP Request,200,OK,Quarkus 3-1,text,true,,74630,84651,1,1,http://benchmark-quarkus-ita-exp.apps.ocpdevgra.dti.co.id/v1/sort,127,0,0
1689302481053,463,HTTP Request,200,OK,Quarkus 3-1,text,true,,74630,84651,1,1,http://benchmark-quarkus-ita-exp.apps.ocpdevgra.dti.co.id/v1/sort,462,0,0
1689302481518,147,HTTP Request,200,OK,Quarkus 3-1,text,true,,74638,84651,1,1,http://benchmark-quarkus-ita-exp.apps.ocpdevgra.dti.co.id/v1/sort,128,0,0
1689302481668,145,HTTP Request,200,OK,Quarkus 3-1,text,true,,74638,84651,1,1,http://benchmark-quarkus-ita-exp.apps.ocpdevgra.dti.co.id/v1/sort,126,0,0
1689302481815,147,HTTP Request,200,OK,Quarkus 3-1,text,true,,74630,84651,1,1,http://benchmark-quarkus-ita-exp.apps.ocpdevgra.dti.co.id/v1/sort,128,0,0
1689302481963,146,HTTP Request,200,OK,Quarkus 3-1,text,true,,74644,84651,1,1,http://benchmark-quarkus-ita-exp.apps.ocpdevgra.dti.co.id/v1/sort,127,0,0
1689302482112,146,HTTP Request,200,OK,Quarkus 3-1,text,true,,74630,84651,1,1,http://benchmark-quarkus-ita-exp.apps.ocpdevgra.dti.co.id/v1/sort,125,0,0
1689302482260,147,HTTP Request,200,OK,Quarkus 3-1,text,true,,74638,84651,1,1,http://benchmark-quarkus-ita-exp.apps.ocpdevgra.dti.co.id/v1/sort,128,0,0
1689302482408,147,HTTP Request,200,OK,Quarkus 3-1,text,true,,74630,84651,1,1,http://benchmark-quarkus-ita-exp.apps.ocpdevgra.dti.co.id/v1/sort,129,0,0
1689302482557,145,HTTP Request,200,OK,Quarkus 3-1,text,true,,74630,84651,1,1,http://benchmark-quarkus-ita-exp.apps.ocpdevgra.dti.co.id/v1/sort,126,0,0
1689302482704,144,HTTP Request,200,OK,Quarkus 3-1,text,true,,74630,84651,1,1,http://benchmark-quarkus-ita-exp.apps.ocpdevgra.dti.co.id/v1/sort,124,0,0
1689302482850,144,HTTP Request,200,OK,Quarkus 3-1,text,true,,74630,84651,1,1,http://benchmark-quarkus-ita-exp.apps.ocpdevgra.dti.co.id/v1/sort,126,0,0
1689302482996,145,HTTP Request,200,OK,Quarkus 3-1,text,true,,74637,84651,1,1,http://benchmark-quarkus-ita-exp.apps.ocpdevgra.dti.co.id/v1/sort,127,0,0
1689302483142,145,HTTP Request,200,OK,Quarkus 3-1,text,true,,74630,84651,1,1,http://benchmark-quarkus-ita-exp.apps.ocpdevgra.dti.co.id/v1/sort,126,0,0
1689302483288,144,HTTP Request,200,OK,Quarkus 3-1,text,true,,74630,84651,1,1,http://benchmark-quarkus-ita-exp.apps.ocpdevgra.dti.co.id/v1/sort,125,0,0
1689302483433,145,HTTP Request,200,OK,Quarkus 3-1,text,true,,74630,84651,1,1,http://benchmark-quarkus-ita-exp.apps.ocpdevgra.dti.co.id/v1/sort,127,0,0
1689302483580,145,HTTP Request,200,OK,Quarkus 3-1,text,true,,74630,84651,1,1,http://benchmark-quarkus-ita-exp.apps.ocpdevgra.dti.co.id/v1/sort,126,0,0
1689302483727,144,HTTP Request,200,OK,Quarkus 3-1,text,true,,74630,84651,1,1,http://benchmark-quarkus-ita-exp.apps.ocpdevgra.dti.co.id/v1/sort,125,0,0
1689302483872,142,HTTP Request,200,OK,Quarkus 3-1,text,true,,74630,84651,1,1,http://benchmark-quarkus-ita-exp.apps.ocpdevgra.dti.co.id/v1/sort,124,0,0
1689302484015,144,HTTP Request,200,OK,Quarkus 3-1,text,true,,74630,84651,1,1,http://benchmark-quarkus-ita-exp.apps.ocpdevgra.dti.co.id/v1/sort,127,0,0
1689302484160,143,HTTP Request,200,OK,Quarkus 3-1,text,true,,74630,84651,1,1,http://benchmark-quarkus-ita-exp.apps.ocpdevgra.dti.co.id/v1/sort,125,0,0
1689302484305,142,HTTP Request,200,OK,Quarkus 3-1,text,true,,74630,84651,1,1,http://benchmark-quarkus-ita-exp.apps.ocpdevgra.dti.co.id/v1/sort,125,0,0
1689302484449,143,HTTP Request,200,OK,Quarkus 3-1,text,true,,74630,84651,1,1,http://benchmark-quarkus-ita-exp.apps.ocpdevgra.dti.co.id/v1/sort,125,0,0
1689302484594,143,HTTP Request,200,OK,Quarkus 3-1,text,true,,74630,84651,1,1,http://benchmark-quarkus-ita-exp.apps.ocpdevgra.dti.co.id/v1/sort,125,0,0
1689302484739,143,HTTP Request,200,OK,Quarkus 3-1,text,true,,74630,84651,1,1,http://benchmark-quarkus-ita-exp.apps.ocpdevgra.dti.co.id/v1/sort,126,0,0
1689302484883,142,HTTP Request,200,OK,Quarkus 3-1,text,true,,74651,84651,1,1,http://benchmark-quarkus-ita-exp.apps.ocpdevgra.dti.co.id/v1/sort,126,0,0
1689302485027,142,HTTP Request,200,OK,Quarkus 3-1,text,true,,74637,84651,1,1,http://benchmark-quarkus-ita-exp.apps.ocpdevgra.dti.co.id/v1/sort,126,0,0
1689302485171,142,HTTP Request,200,OK,Quarkus 3-1,text,true,,74630,84651,1,1,http://benchmark-quarkus-ita-exp.apps.ocpdevgra.dti.co.id/v1/sort,126,0,0
1689302485315,142,HTTP Request,200,OK,Quarkus 3-1,text,true,,74637,84651,1,1,http://benchmark-quarkus-ita-exp.apps.ocpdevgra.dti.co.id/v1/sort,125,0,0
1689302485459,143,HTTP Request,200,OK,Quarkus 3-1,text,true,,74630,84651,1,1,http://benchmark-quarkus-ita-exp.apps.ocpdevgra.dti.co.id/v1/sort,125,0,0
1689302485604,132,HTTP Request,200,OK,Quarkus 3-1,text,true,,74630,84651,1,1,http://benchmark-quarkus-ita-exp.apps.ocpdevgra.dti.co.id/v1/sort,126,0,0
1689302485738,130,HTTP Request,200,OK,Quarkus 3-1,text,true,,74643,84651,1,1,http://benchmark-quarkus-ita-exp.apps.ocpdevgra.dti.co.id/v1/sort,125,0,0
1689302485869,131,HTTP Request,200,OK,Quarkus 3-1,text,true,,74630,84651,1,1,http://benchmark-quarkus-ita-exp.apps.ocpdevgra.dti.co.id/v1/sort,125,0,0
1689302486002,130,HTTP Request,200,OK,Quarkus 3-1,text,true,,74630,84651,1,1,http://benchmark-quarkus-ita-exp.apps.ocpdevgra.dti.co.id/v1/sort,124,0,0
1689302486134,131,HTTP Request,200,OK,Quarkus 3-1,text,true,,74630,84651,1,1,http://benchmark-quarkus-ita-exp.apps.ocpdevgra.dti.co.id/v1/sort,125,0,0
1689302486266,131,HTTP Request,200,OK,Quarkus 3-1,text,true,,74630,84651,1,1,http://benchmark-quarkus-ita-exp.apps.ocpdevgra.dti.co.id/v1/sort,125,0,0
1689302486398,132,HTTP Request,200,OK,Quarkus 3-1,text,true,,74630,84651,1,1,http://benchmark-quarkus-ita-exp.apps.ocpdevgra.dti.co.id/v1/sort,126,0,0
1689302486532,132,HTTP Request,200,OK,Quarkus 3-1,text,true,,74630,84651,1,1,http://benchmark-quarkus-ita-exp.apps.ocpdevgra.dti.co.id/v1/sort,126,0,0
1689302486665,131,HTTP Request,200,OK,Quarkus 3-1,text,true,,74645,84651,1,1,http://benchmark-quarkus-ita-exp.apps.ocpdevgra.dti.co.id/v1/sort,125,0,0
1689302486798,132,HTTP Request,200,OK,Quarkus 3-1,text,true,,74630,84651,1,1,http://benchmark-quarkus-ita-exp.apps.ocpdevgra.dti.co.id/v1/sort,126,0,0
1689302486932,130,HTTP Request,200,OK,Quarkus 3-1,text,true,,74650,84651,1,1,http://benchmark-quarkus-ita-exp.apps.ocpdevgra.dti.co.id/v1/sort,125,0,0
1689302487064,131,HTTP Request,200,OK,Quarkus 3-1,text,true,,74644,84651,1,1,http://benchmark-quarkus-ita-exp.apps.ocpdevgra.dti.co.id/v1/sort,125,0,0
1689302487197,140,HTTP Request,200,OK,Quarkus 3-1,text,true,,74644,84651,1,1,http://benchmark-quarkus-ita-exp.apps.ocpdevgra.dti.co.id/v1/sort,134,0,0
1689302487338,131,HTTP Request,200,OK,Quarkus 3-1,text,true,,74637,84651,1,1,http://benchmark-quarkus-ita-exp.apps.ocpdevgra.dti.co.id/v1/sort,126,0,0
1689302487470,134,HTTP Request,200,OK,Quarkus 3-1,text,true,,74630,84651,1,1,http://benchmark-quarkus-ita-exp.apps.ocpdevgra.dti.co.id/v1/sort,129,0,0
1689302487606,134,HTTP Request,200,OK,Quarkus 3-1,text,true,,74635,84651,1,1,http://benchmark-quarkus-ita-exp.apps.ocpdevgra.dti.co.id/v1/sort,128,0,0
1689302487741,132,HTTP Request,200,OK,Quarkus 3-1,text,true,,74630,84651,1,1,http://benchmark-quarkus-ita-exp.apps.ocpdevgra.dti.co.id/v1/sort,127,0,0
1689302487875,136,HTTP Request,200,OK,Quarkus 3-1,text,true,,74630,84651,1,1,http://benchmark-quarkus-ita-exp.apps.ocpdevgra.dti.co.id/v1/sort,131,0,0
1689302488012,136,HTTP Request,200,OK,Quarkus 3-1,text,true,,74630,84651,1,1,http://benchmark-quarkus-ita-exp.apps.ocpdevgra.dti.co.id/v1/sort,130,0,0
1689302488149,131,HTTP Request,200,OK,Quarkus 3-1,text,true,,74630,84651,1,1,http://benchmark-quarkus-ita-exp.apps.ocpdevgra.dti.co.id/v1/sort,125,0,0
1689302488281,131,HTTP Request,200,OK,Quarkus 3-1,text,true,,74630,84651,1,1,http://benchmark-quarkus-ita-exp.apps.ocpdevgra.dti.co.id/v1/sort,125,0,0
1689302488413,131,HTTP Request,200,OK,Quarkus 3-1,text,true,,74637,84651,1,1,http://benchmark-quarkus-ita-exp.apps.ocpdevgra.dti.co.id/v1/sort,125,0,0
1689302488545,131,HTTP Request,200,OK,Quarkus 3-1,text,true,,74628,84651,1,1,http://benchmark-quarkus-ita-exp.apps.ocpdevgra.dti.co.id/v1/sort,125,0,0
1689302488678,131,HTTP Request,200,OK,Quarkus 3-1,text,true,,74630,84651,1,1,http://benchmark-quarkus-ita-exp.apps.ocpdevgra.dti.co.id/v1/sort,125,0,0
1689302488810,133,HTTP Request,200,OK,Quarkus 3-1,text,true,,74630,84651,1,1,http://benchmark-quarkus-ita-exp.apps.ocpdevgra.dti.co.id/v1/sort,128,0,0
1689302488944,131,HTTP Request,200,OK,Quarkus 3-1,text,true,,74630,84651,1,1,http://benchmark-quarkus-ita-exp.apps.ocpdevgra.dti.co.id/v1/sort,125,0,0
1689302489076,131,HTTP Request,200,OK,Quarkus 3-1,text,true,,74630,84651,1,1,http://benchmark-quarkus-ita-exp.apps.ocpdevgra.dti.co.id/v1/sort,125,0,0
1689302489208,131,HTTP Request,200,OK,Quarkus 3-1,text,true,,74636,84651,1,1,http://benchmark-quarkus-ita-exp.apps.ocpdevgra.dti.co.id/v1/sort,126,0,0
