timeStamp,elapsed,label,responseCode,responseMessage,threadName,dataType,success,failureMessage,bytes,sentBytes,grpThreads,allThreads,URL,Latency,IdleTime,Connect
1689072572156,35,Echo,200,OK,Echo 3-1,text,true,,221,236,1,10,http://benchmark-echo-ita-exp.apps.ocpdevgra.dti.co.id/v1/pidigits,35,0,17
1689072572191,18,Echo,200,OK,Echo 3-1,text,true,,221,238,1,10,http://benchmark-echo-ita-exp.apps.ocpdevgra.dti.co.id/v1/pidigits,18,0,0
1689072572209,17,Echo,200,OK,Echo 3-1,text,true,,240,236,1,10,http://benchmark-echo-ita-exp.apps.ocpdevgra.dti.co.id/v1/pidigits,17,0,0
1689072572226,679,Echo,200,OK,Echo 3-1,text,true,,221,240,1,10,http://benchmark-echo-ita-exp.apps.ocpdevgra.dti.co.id/v1/pidigits,679,0,15
1689072572905,43,Echo,200,OK,Echo 3-1,text,true,,221,239,1,10,http://benchmark-echo-ita-exp.apps.ocpdevgra.dti.co.id/v1/pidigits,43,0,0
1689072572948,25,Echo,200,OK,Echo 3-1,text,true,,221,238,1,10,http://benchmark-echo-ita-exp.apps.ocpdevgra.dti.co.id/v1/pidigits,25,0,0
1689072572973,17,Echo,200,OK,Echo 3-1,text,true,,221,237,1,10,http://benchmark-echo-ita-exp.apps.ocpdevgra.dti.co.id/v1/pidigits,17,0,0
1689072572990,16,Echo,200,OK,Echo 3-1,text,true,,221,236,1,10,http://benchmark-echo-ita-exp.apps.ocpdevgra.dti.co.id/v1/pidigits,16,0,0
1689072573006,17,Echo,200,OK,Echo 3-1,text,true,,221,235,1,10,http://benchmark-echo-ita-exp.apps.ocpdevgra.dti.co.id/v1/pidigits,17,0,0
1689072573023,16,Echo,200,OK,Echo 3-1,text,true,,221,234,1,10,http://benchmark-echo-ita-exp.apps.ocpdevgra.dti.co.id/v1/pidigits,16,0,0
1689072573039,15,Echo,200,OK,Echo 3-1,text,true,,221,234,1,10,http://benchmark-echo-ita-exp.apps.ocpdevgra.dti.co.id/v1/pidigits,15,0,0
1689072573054,16,Echo,200,OK,Echo 3-1,text,true,,221,233,1,10,http://benchmark-echo-ita-exp.apps.ocpdevgra.dti.co.id/v1/pidigits,16,0,0
1689072573071,15,Echo,200,OK,Echo 3-1,text,true,,221,234,1,10,http://benchmark-echo-ita-exp.apps.ocpdevgra.dti.co.id/v1/pidigits,15,0,0
1689072573087,14,Echo,200,OK,Echo 3-1,text,true,,221,235,1,10,http://benchmark-echo-ita-exp.apps.ocpdevgra.dti.co.id/v1/pidigits,14,0,0
1689072573102,16,Echo,200,OK,Echo 3-1,text,true,,221,236,1,10,http://benchmark-echo-ita-exp.apps.ocpdevgra.dti.co.id/v1/pidigits,16,0,0
1689072573118,17,Echo,200,OK,Echo 3-1,text,true,,221,237,1,10,http://benchmark-echo-ita-exp.apps.ocpdevgra.dti.co.id/v1/pidigits,17,0,0
1689072573135,21,Echo,200,OK,Echo 3-1,text,true,,221,238,1,10,http://benchmark-echo-ita-exp.apps.ocpdevgra.dti.co.id/v1/pidigits,21,0,0
1689072573156,95,Echo,200,OK,Echo 3-1,text,true,,221,239,1,10,http://benchmark-echo-ita-exp.apps.ocpdevgra.dti.co.id/v1/pidigits,95,0,0
1689072573252,827,Echo,200,OK,Echo 3-1,text,true,,221,240,1,10,http://benchmark-echo-ita-exp.apps.ocpdevgra.dti.co.id/v1/pidigits,827,0,0
1689072574079,18,Echo,200,OK,Echo 3-1,text,true,,221,238,1,10,http://benchmark-echo-ita-exp.apps.ocpdevgra.dti.co.id/v1/pidigits,17,0,0
1689072574097,15,Echo,200,OK,Echo 3-1,text,true,,221,236,1,10,http://benchmark-echo-ita-exp.apps.ocpdevgra.dti.co.id/v1/pidigits,15,0,0
1689072574112,15,Echo,200,OK,Echo 3-1,text,true,,221,234,1,10,http://benchmark-echo-ita-exp.apps.ocpdevgra.dti.co.id/v1/pidigits,15,0,0
1689072574128,15,Echo,200,OK,Echo 3-1,text,true,,221,236,1,10,http://benchmark-echo-ita-exp.apps.ocpdevgra.dti.co.id/v1/pidigits,15,0,0
1689072574143,21,Echo,200,OK,Echo 3-1,text,true,,221,238,1,10,http://benchmark-echo-ita-exp.apps.ocpdevgra.dti.co.id/v1/pidigits,21,0,0
1689072574164,653,Echo,200,OK,Echo 3-1,text,true,,221,240,1,10,http://benchmark-echo-ita-exp.apps.ocpdevgra.dti.co.id/v1/pidigits,653,0,0
1689072574818,15,Echo,200,OK,Echo 3-1,text,true,,221,236,1,10,http://benchmark-echo-ita-exp.apps.ocpdevgra.dti.co.id/v1/pidigits,15,0,0
1689072574833,59,Echo,200,OK,Echo 3-1,text,true,,221,239,1,10,http://benchmark-echo-ita-exp.apps.ocpdevgra.dti.co.id/v1/pidigits,59,0,0
1689072574892,1056,Echo,200,OK,Echo 3-1,text,true,,240,240,1,10,http://benchmark-echo-ita-exp.apps.ocpdevgra.dti.co.id/v1/pidigits,1056,0,0
1689072575948,35,Echo,200,OK,Echo 3-1,text,true,,221,238,1,10,http://benchmark-echo-ita-exp.apps.ocpdevgra.dti.co.id/v1/pidigits,35,0,16
1689072575983,16,Echo,200,OK,Echo 3-1,text,true,,221,237,1,10,http://benchmark-echo-ita-exp.apps.ocpdevgra.dti.co.id/v1/pidigits,16,0,0
1689072575999,18,Echo,200,OK,Echo 3-1,text,true,,221,236,1,10,http://benchmark-echo-ita-exp.apps.ocpdevgra.dti.co.id/v1/pidigits,18,0,0
1689072576017,16,Echo,200,OK,Echo 3-1,text,true,,221,235,1,10,http://benchmark-echo-ita-exp.apps.ocpdevgra.dti.co.id/v1/pidigits,16,0,0
1689072576033,16,Echo,200,OK,Echo 3-1,text,true,,221,235,1,10,http://benchmark-echo-ita-exp.apps.ocpdevgra.dti.co.id/v1/pidigits,16,0,0
1689072576049,17,Echo,200,OK,Echo 3-1,text,true,,221,237,1,10,http://benchmark-echo-ita-exp.apps.ocpdevgra.dti.co.id/v1/pidigits,17,0,0
1689072576066,104,Echo,200,OK,Echo 3-1,text,true,,221,239,1,10,http://benchmark-echo-ita-exp.apps.ocpdevgra.dti.co.id/v1/pidigits,104,0,0
1689072576170,1267,Echo,200,OK,Echo 3-1,text,true,,221,241,1,10,http://benchmark-echo-ita-exp.apps.ocpdevgra.dti.co.id/v1/pidigits,1267,0,0
1689072577437,16,Echo,200,OK,Echo 3-1,text,true,,221,236,1,10,http://benchmark-echo-ita-exp.apps.ocpdevgra.dti.co.id/v1/pidigits,16,0,0
1689072577454,22,Echo,200,OK,Echo 3-1,text,true,,221,238,1,10,http://benchmark-echo-ita-exp.apps.ocpdevgra.dti.co.id/v1/pidigits,22,0,0
1689072577476,1318,Echo,200,OK,Echo 3-1,text,true,,221,241,1,10,http://benchmark-echo-ita-exp.apps.ocpdevgra.dti.co.id/v1/pidigits,1318,0,0
1689072578794,24,Echo,200,OK,Echo 3-1,text,true,,221,238,1,10,http://benchmark-echo-ita-exp.apps.ocpdevgra.dti.co.id/v1/pidigits,24,0,0
1689072578818,17,Echo,200,OK,Echo 3-1,text,true,,221,237,1,10,http://benchmark-echo-ita-exp.apps.ocpdevgra.dti.co.id/v1/pidigits,17,0,0
1689072578835,16,Echo,200,OK,Echo 3-1,text,true,,221,236,1,10,http://benchmark-echo-ita-exp.apps.ocpdevgra.dti.co.id/v1/pidigits,16,0,0
1689072578851,16,Echo,200,OK,Echo 3-1,text,true,,221,235,1,10,http://benchmark-echo-ita-exp.apps.ocpdevgra.dti.co.id/v1/pidigits,16,0,0
1689072578867,16,Echo,200,OK,Echo 3-1,text,true,,221,234,1,10,http://benchmark-echo-ita-exp.apps.ocpdevgra.dti.co.id/v1/pidigits,16,0,0
1689072578883,16,Echo,200,OK,Echo 3-1,text,true,,221,235,1,10,http://benchmark-echo-ita-exp.apps.ocpdevgra.dti.co.id/v1/pidigits,16,0,0
