timeStamp,elapsed,label,responseCode,responseMessage,threadName,dataType,success,failureMessage,bytes,sentBytes,grpThreads,allThreads,URL,Latency,IdleTime,Connect
1689072572156,36,Flask,200,OK,Flask 1-1,text,true,,270,235,1,10,http://benchmark-flask-ita-exp.apps.ocpdevgra.dti.co.id/v1/pidigits,36,0,17
1689072572192,22,Flask,200,OK,Flask 1-1,text,true,,270,237,1,10,http://benchmark-flask-ita-exp.apps.ocpdevgra.dti.co.id/v1/pidigits,22,0,0
1689072572214,74,Flask,200,OK,Flask 1-1,text,true,,270,238,1,10,http://benchmark-flask-ita-exp.apps.ocpdevgra.dti.co.id/v1/pidigits,74,0,0
1689072572289,4740,Flask,200,OK,Flask 1-1,text,true,,289,240,1,10,http://benchmark-flask-ita-exp.apps.ocpdevgra.dti.co.id/v1/pidigits,4740,0,0
1689072577029,1592,Flask,502,Bad Gateway,Flask 1-1,text,false,,206,241,1,10,http://benchmark-flask-ita-exp.apps.ocpdevgra.dti.co.id/v1/pidigits,1592,0,17
1689072578621,3022,Flask,503,Service Unavailable,Flask 1-1,text,false,,2637,240,1,8,http://benchmark-flask-ita-exp.apps.ocpdevgra.dti.co.id/v1/pidigits,3022,0,0
1689072581643,33,Flask,503,Service Unavailable,Flask 1-1,text,false,,2637,237,1,7,http://benchmark-flask-ita-exp.apps.ocpdevgra.dti.co.id/v1/pidigits,33,0,16
1689072581676,32,Flask,503,Service Unavailable,Flask 1-1,text,false,,2637,235,1,7,http://benchmark-flask-ita-exp.apps.ocpdevgra.dti.co.id/v1/pidigits,32,0,16
1689072581708,33,Flask,503,Service Unavailable,Flask 1-1,text,false,,2637,237,1,7,http://benchmark-flask-ita-exp.apps.ocpdevgra.dti.co.id/v1/pidigits,33,0,16
1689072581741,32,Flask,503,Service Unavailable,Flask 1-1,text,false,,2637,240,1,7,http://benchmark-flask-ita-exp.apps.ocpdevgra.dti.co.id/v1/pidigits,32,0,16
1689072581773,32,Flask,503,Service Unavailable,Flask 1-1,text,false,,2637,242,1,7,http://benchmark-flask-ita-exp.apps.ocpdevgra.dti.co.id/v1/pidigits,32,0,16
1689072581805,34,Flask,503,Service Unavailable,Flask 1-1,text,false,,2637,241,1,7,http://benchmark-flask-ita-exp.apps.ocpdevgra.dti.co.id/v1/pidigits,34,0,17
1689072581839,33,Flask,503,Service Unavailable,Flask 1-1,text,false,,2637,240,1,7,http://benchmark-flask-ita-exp.apps.ocpdevgra.dti.co.id/v1/pidigits,33,0,17
1689072581872,33,Flask,503,Service Unavailable,Flask 1-1,text,false,,2637,239,1,7,http://benchmark-flask-ita-exp.apps.ocpdevgra.dti.co.id/v1/pidigits,32,0,16
1689072581905,33,Flask,503,Service Unavailable,Flask 1-1,text,false,,2637,238,1,7,http://benchmark-flask-ita-exp.apps.ocpdevgra.dti.co.id/v1/pidigits,32,0,16
1689072581938,32,Flask,503,Service Unavailable,Flask 1-1,text,false,,2637,237,1,7,http://benchmark-flask-ita-exp.apps.ocpdevgra.dti.co.id/v1/pidigits,32,0,16
1689072581970,33,Flask,503,Service Unavailable,Flask 1-1,text,false,,2637,236,1,7,http://benchmark-flask-ita-exp.apps.ocpdevgra.dti.co.id/v1/pidigits,33,0,17
1689072582004,32,Flask,503,Service Unavailable,Flask 1-1,text,false,,2637,235,1,7,http://benchmark-flask-ita-exp.apps.ocpdevgra.dti.co.id/v1/pidigits,31,0,16
1689072582036,32,Flask,503,Service Unavailable,Flask 1-1,text,false,,2637,236,1,7,http://benchmark-flask-ita-exp.apps.ocpdevgra.dti.co.id/v1/pidigits,32,0,16
1689072582068,32,Flask,503,Service Unavailable,Flask 1-1,text,false,,2637,237,1,7,http://benchmark-flask-ita-exp.apps.ocpdevgra.dti.co.id/v1/pidigits,32,0,16
1689072582101,32,Flask,503,Service Unavailable,Flask 1-1,text,false,,2637,238,1,7,http://benchmark-flask-ita-exp.apps.ocpdevgra.dti.co.id/v1/pidigits,32,0,16
1689072582133,32,Flask,503,Service Unavailable,Flask 1-1,text,false,,2637,239,1,7,http://benchmark-flask-ita-exp.apps.ocpdevgra.dti.co.id/v1/pidigits,32,0,16
1689072582165,32,Flask,503,Service Unavailable,Flask 1-1,text,false,,2637,240,1,7,http://benchmark-flask-ita-exp.apps.ocpdevgra.dti.co.id/v1/pidigits,32,0,16
1689072582197,31,Flask,503,Service Unavailable,Flask 1-1,text,false,,2637,241,1,7,http://benchmark-flask-ita-exp.apps.ocpdevgra.dti.co.id/v1/pidigits,31,0,15
1689072582228,33,Flask,503,Service Unavailable,Flask 1-1,text,false,,2637,242,1,7,http://benchmark-flask-ita-exp.apps.ocpdevgra.dti.co.id/v1/pidigits,33,0,16
1689072582261,32,Flask,503,Service Unavailable,Flask 1-1,text,false,,2637,241,1,7,http://benchmark-flask-ita-exp.apps.ocpdevgra.dti.co.id/v1/pidigits,32,0,16
1689072582293,33,Flask,503,Service Unavailable,Flask 1-1,text,false,,2637,240,1,7,http://benchmark-flask-ita-exp.apps.ocpdevgra.dti.co.id/v1/pidigits,33,0,16
1689072582326,33,Flask,503,Service Unavailable,Flask 1-1,text,false,,2637,239,1,7,http://benchmark-flask-ita-exp.apps.ocpdevgra.dti.co.id/v1/pidigits,32,0,16
1689072582359,33,Flask,503,Service Unavailable,Flask 1-1,text,false,,2637,238,1,7,http://benchmark-flask-ita-exp.apps.ocpdevgra.dti.co.id/v1/pidigits,33,0,16
1689072582392,34,Flask,503,Service Unavailable,Flask 1-1,text,false,,2637,237,1,7,http://benchmark-flask-ita-exp.apps.ocpdevgra.dti.co.id/v1/pidigits,33,0,17
1689072582426,33,Flask,503,Service Unavailable,Flask 1-1,text,false,,2637,236,1,7,http://benchmark-flask-ita-exp.apps.ocpdevgra.dti.co.id/v1/pidigits,32,0,16
1689072582459,35,Flask,503,Service Unavailable,Flask 1-1,text,false,,2637,235,1,7,http://benchmark-flask-ita-exp.apps.ocpdevgra.dti.co.id/v1/pidigits,34,0,17
1689072582494,33,Flask,503,Service Unavailable,Flask 1-1,text,false,,2637,235,1,7,http://benchmark-flask-ita-exp.apps.ocpdevgra.dti.co.id/v1/pidigits,32,0,16
1689072582527,33,Flask,503,Service Unavailable,Flask 1-1,text,false,,2637,234,1,7,http://benchmark-flask-ita-exp.apps.ocpdevgra.dti.co.id/v1/pidigits,32,0,16
1689072582561,33,Flask,503,Service Unavailable,Flask 1-1,text,false,,2637,235,1,7,http://benchmark-flask-ita-exp.apps.ocpdevgra.dti.co.id/v1/pidigits,32,0,16
1689072582594,34,Flask,503,Service Unavailable,Flask 1-1,text,false,,2637,236,1,7,http://benchmark-flask-ita-exp.apps.ocpdevgra.dti.co.id/v1/pidigits,34,0,17
1689072582628,33,Flask,503,Service Unavailable,Flask 1-1,text,false,,2637,237,1,7,http://benchmark-flask-ita-exp.apps.ocpdevgra.dti.co.id/v1/pidigits,33,0,16
1689072582661,33,Flask,503,Service Unavailable,Flask 1-1,text,false,,2637,238,1,7,http://benchmark-flask-ita-exp.apps.ocpdevgra.dti.co.id/v1/pidigits,32,0,17
1689072582694,34,Flask,503,Service Unavailable,Flask 1-1,text,false,,2637,239,1,7,http://benchmark-flask-ita-exp.apps.ocpdevgra.dti.co.id/v1/pidigits,33,0,17
1689072582728,33,Flask,503,Service Unavailable,Flask 1-1,text,false,,2637,241,1,7,http://benchmark-flask-ita-exp.apps.ocpdevgra.dti.co.id/v1/pidigits,33,0,16
1689072582761,32,Flask,503,Service Unavailable,Flask 1-1,text,false,,2637,242,1,7,http://benchmark-flask-ita-exp.apps.ocpdevgra.dti.co.id/v1/pidigits,32,0,16
1689072582793,32,Flask,503,Service Unavailable,Flask 1-1,text,false,,2637,241,1,7,http://benchmark-flask-ita-exp.apps.ocpdevgra.dti.co.id/v1/pidigits,32,0,16
1689072582825,33,Flask,503,Service Unavailable,Flask 1-1,text,false,,2637,240,1,7,http://benchmark-flask-ita-exp.apps.ocpdevgra.dti.co.id/v1/pidigits,33,0,17
1689072582858,34,Flask,503,Service Unavailable,Flask 1-1,text,false,,2637,237,1,7,http://benchmark-flask-ita-exp.apps.ocpdevgra.dti.co.id/v1/pidigits,33,0,17
1689072582892,32,Flask,503,Service Unavailable,Flask 1-1,text,false,,2637,236,1,7,http://benchmark-flask-ita-exp.apps.ocpdevgra.dti.co.id/v1/pidigits,32,0,16
