timeStamp,elapsed,label,responseCode,responseMessage,threadName,dataType,success,failureMessage,bytes,sentBytes,grpThreads,allThreads,URL,Latency,IdleTime,Connect
1689072572159,202,Quarkus,200,OK,Quarkus 6-1,text,true,,205,242,1,10,http://benchmark-quarkus-ita-exp.apps.ocpdevgra.dti.co.id/v1/pidigits,202,0,15
1689072572362,33,Quarkus,200,OK,Quarkus 6-1,text,true,,186,238,1,10,http://benchmark-quarkus-ita-exp.apps.ocpdevgra.dti.co.id/v1/pidigits,33,0,16
1689072572395,38,Quarkus,200,OK,Quarkus 6-1,text,true,,184,241,1,10,http://benchmark-quarkus-ita-exp.apps.ocpdevgra.dti.co.id/v1/pidigits,38,0,0
1689072572433,2488,Quarkus,200,OK,Quarkus 6-1,text,true,,186,244,1,10,http://benchmark-quarkus-ita-exp.apps.ocpdevgra.dti.co.id/v1/pidigits,2488,0,0
1689072574921,76,Quarkus,200,OK,Quarkus 6-1,text,true,,185,242,1,10,http://benchmark-quarkus-ita-exp.apps.ocpdevgra.dti.co.id/v1/pidigits,76,0,0
1689072574997,37,Quarkus,200,OK,Quarkus 6-1,text,true,,185,241,1,10,http://benchmark-quarkus-ita-exp.apps.ocpdevgra.dti.co.id/v1/pidigits,37,0,0
1689072575034,17,Quarkus,200,OK,Quarkus 6-1,text,true,,186,240,1,10,http://benchmark-quarkus-ita-exp.apps.ocpdevgra.dti.co.id/v1/pidigits,17,0,0
1689072575051,16,Quarkus,200,OK,Quarkus 6-1,text,true,,186,238,1,10,http://benchmark-quarkus-ita-exp.apps.ocpdevgra.dti.co.id/v1/pidigits,16,0,0
1689072575067,15,Quarkus,200,OK,Quarkus 6-1,text,true,,184,237,1,10,http://benchmark-quarkus-ita-exp.apps.ocpdevgra.dti.co.id/v1/pidigits,15,0,0
1689072575084,17,Quarkus,200,OK,Quarkus 6-1,text,true,,185,237,1,10,http://benchmark-quarkus-ita-exp.apps.ocpdevgra.dti.co.id/v1/pidigits,17,0,0
1689072575101,16,Quarkus,200,OK,Quarkus 6-1,text,true,,185,239,1,10,http://benchmark-quarkus-ita-exp.apps.ocpdevgra.dti.co.id/v1/pidigits,16,0,0
1689072575117,27,Quarkus,200,OK,Quarkus 6-1,text,true,,186,241,1,10,http://benchmark-quarkus-ita-exp.apps.ocpdevgra.dti.co.id/v1/pidigits,27,0,0
1689072575144,1722,Quarkus,200,OK,Quarkus 6-1,text,true,,205,243,1,10,http://benchmark-quarkus-ita-exp.apps.ocpdevgra.dti.co.id/v1/pidigits,1722,0,0
1689072576867,34,Quarkus,200,OK,Quarkus 6-1,text,true,,186,238,1,10,http://benchmark-quarkus-ita-exp.apps.ocpdevgra.dti.co.id/v1/pidigits,34,0,16
1689072576901,18,Quarkus,200,OK,Quarkus 6-1,text,true,,186,239,1,10,http://benchmark-quarkus-ita-exp.apps.ocpdevgra.dti.co.id/v1/pidigits,18,0,0
1689072576919,39,Quarkus,200,OK,Quarkus 6-1,text,true,,184,241,1,10,http://benchmark-quarkus-ita-exp.apps.ocpdevgra.dti.co.id/v1/pidigits,39,0,0
1689072576958,2223,Quarkus,200,OK,Quarkus 6-1,text,true,,184,243,1,9,http://benchmark-quarkus-ita-exp.apps.ocpdevgra.dti.co.id/v1/pidigits,2223,0,0
1689072579182,2211,Quarkus,200,OK,Quarkus 6-1,text,true,,203,243,1,8,http://benchmark-quarkus-ita-exp.apps.ocpdevgra.dti.co.id/v1/pidigits,2211,0,0
1689072581393,35,Quarkus,200,OK,Quarkus 6-1,text,true,,186,240,1,8,http://benchmark-quarkus-ita-exp.apps.ocpdevgra.dti.co.id/v1/pidigits,35,0,16
1689072581428,17,Quarkus,200,OK,Quarkus 6-1,text,true,,186,238,1,8,http://benchmark-quarkus-ita-exp.apps.ocpdevgra.dti.co.id/v1/pidigits,17,0,0
1689072581445,15,Quarkus,200,OK,Quarkus 6-1,text,true,,185,236,1,8,http://benchmark-quarkus-ita-exp.apps.ocpdevgra.dti.co.id/v1/pidigits,15,0,0
1689072581461,16,Quarkus,200,OK,Quarkus 6-1,text,true,,185,237,1,8,http://benchmark-quarkus-ita-exp.apps.ocpdevgra.dti.co.id/v1/pidigits,16,0,0
1689072581477,17,Quarkus,200,OK,Quarkus 6-1,text,true,,185,239,1,8,http://benchmark-quarkus-ita-exp.apps.ocpdevgra.dti.co.id/v1/pidigits,17,0,0
1689072581494,28,Quarkus,200,OK,Quarkus 6-1,text,true,,186,241,1,8,http://benchmark-quarkus-ita-exp.apps.ocpdevgra.dti.co.id/v1/pidigits,28,0,0
1689072581522,2485,Quarkus,200,OK,Quarkus 6-1,text,true,,186,244,1,5,http://benchmark-quarkus-ita-exp.apps.ocpdevgra.dti.co.id/v1/pidigits,2485,0,0
1689072584007,1980,Quarkus,200,OK,Quarkus 6-1,text,true,,205,243,1,5,http://benchmark-quarkus-ita-exp.apps.ocpdevgra.dti.co.id/v1/pidigits,1980,0,0
1689072585987,92,Quarkus,200,OK,Quarkus 6-1,text,true,,185,242,1,5,http://benchmark-quarkus-ita-exp.apps.ocpdevgra.dti.co.id/v1/pidigits,92,0,16
1689072586079,37,Quarkus,200,OK,Quarkus 6-1,text,true,,185,241,1,5,http://benchmark-quarkus-ita-exp.apps.ocpdevgra.dti.co.id/v1/pidigits,37,0,0
1689072586116,17,Quarkus,200,OK,Quarkus 6-1,text,true,,186,240,1,5,http://benchmark-quarkus-ita-exp.apps.ocpdevgra.dti.co.id/v1/pidigits,17,0,0
1689072586133,16,Quarkus,200,OK,Quarkus 6-1,text,true,,186,239,1,5,http://benchmark-quarkus-ita-exp.apps.ocpdevgra.dti.co.id/v1/pidigits,16,0,0
1689072586149,16,Quarkus,200,OK,Quarkus 6-1,text,true,,186,238,1,5,http://benchmark-quarkus-ita-exp.apps.ocpdevgra.dti.co.id/v1/pidigits,16,0,0
1689072586165,16,Quarkus,200,OK,Quarkus 6-1,text,true,,185,237,1,5,http://benchmark-quarkus-ita-exp.apps.ocpdevgra.dti.co.id/v1/pidigits,16,0,0
1689072586181,16,Quarkus,200,OK,Quarkus 6-1,text,true,,184,237,1,5,http://benchmark-quarkus-ita-exp.apps.ocpdevgra.dti.co.id/v1/pidigits,16,0,0
1689072586197,16,Quarkus,200,OK,Quarkus 6-1,text,true,,185,236,1,5,http://benchmark-quarkus-ita-exp.apps.ocpdevgra.dti.co.id/v1/pidigits,16,0,0
1689072586214,17,Quarkus,200,OK,Quarkus 6-1,text,true,,185,237,1,5,http://benchmark-quarkus-ita-exp.apps.ocpdevgra.dti.co.id/v1/pidigits,17,0,0
1689072586231,19,Quarkus,200,OK,Quarkus 6-1,text,true,,186,238,1,5,http://benchmark-quarkus-ita-exp.apps.ocpdevgra.dti.co.id/v1/pidigits,19,0,0
1689072586250,18,Quarkus,200,OK,Quarkus 6-1,text,true,,185,239,1,5,http://benchmark-quarkus-ita-exp.apps.ocpdevgra.dti.co.id/v1/pidigits,18,0,0
1689072586268,19,Quarkus,200,OK,Quarkus 6-1,text,true,,185,240,1,5,http://benchmark-quarkus-ita-exp.apps.ocpdevgra.dti.co.id/v1/pidigits,19,0,0
1689072586287,28,Quarkus,200,OK,Quarkus 6-1,text,true,,186,241,1,5,http://benchmark-quarkus-ita-exp.apps.ocpdevgra.dti.co.id/v1/pidigits,28,0,0
1689072586315,185,Quarkus,200,OK,Quarkus 6-1,text,true,,186,242,1,5,http://benchmark-quarkus-ita-exp.apps.ocpdevgra.dti.co.id/v1/pidigits,185,0,0
1689072586500,1735,Quarkus,200,OK,Quarkus 6-1,text,true,,186,243,1,5,http://benchmark-quarkus-ita-exp.apps.ocpdevgra.dti.co.id/v1/pidigits,1735,0,0
1689072588235,212,Quarkus,200,OK,Quarkus 6-1,text,true,,186,242,1,5,http://benchmark-quarkus-ita-exp.apps.ocpdevgra.dti.co.id/v1/pidigits,212,0,0
1689072588447,19,Quarkus,200,OK,Quarkus 6-1,text,true,,185,241,1,5,http://benchmark-quarkus-ita-exp.apps.ocpdevgra.dti.co.id/v1/pidigits,19,0,0
1689072588466,23,Quarkus,200,OK,Quarkus 6-1,text,true,,186,240,1,5,http://benchmark-quarkus-ita-exp.apps.ocpdevgra.dti.co.id/v1/pidigits,23,0,0
1689072588489,17,Quarkus,200,OK,Quarkus 6-1,text,true,,185,239,1,5,http://benchmark-quarkus-ita-exp.apps.ocpdevgra.dti.co.id/v1/pidigits,17,0,0
