timeStamp,elapsed,label,responseCode,responseMessage,threadName,dataType,success,failureMessage,bytes,sentBytes,grpThreads,allThreads,URL,Latency,IdleTime,Connect
1689072572159,1738,Springboot,200,,Springboot 7-1,text,true,,240,246,1,10,http://benchmark-springboot-ita-exp.apps.ocpdevgra.dti.co.id/v1/pidigits,1738,0,16
1689072573897,1152,Springboot,200,,Springboot 7-1,text,true,,240,246,1,10,http://benchmark-springboot-ita-exp.apps.ocpdevgra.dti.co.id/v1/pidigits,1152,0,0
1689072575049,17,Springboot,200,,Springboot 7-1,text,true,,240,242,1,10,http://benchmark-springboot-ita-exp.apps.ocpdevgra.dti.co.id/v1/pidigits,17,0,0
1689072575066,16,Springboot,200,,Springboot 7-1,text,true,,239,240,1,10,http://benchmark-springboot-ita-exp.apps.ocpdevgra.dti.co.id/v1/pidigits,16,0,0
1689072575083,16,Springboot,200,,Springboot 7-1,text,true,,239,239,1,10,http://benchmark-springboot-ita-exp.apps.ocpdevgra.dti.co.id/v1/pidigits,16,0,0
1689072575099,16,Springboot,200,,Springboot 7-1,text,true,,240,241,1,10,http://benchmark-springboot-ita-exp.apps.ocpdevgra.dti.co.id/v1/pidigits,16,0,0
1689072575115,18,Springboot,200,,Springboot 7-1,text,true,,239,243,1,10,http://benchmark-springboot-ita-exp.apps.ocpdevgra.dti.co.id/v1/pidigits,18,0,0
1689072575133,185,Springboot,200,,Springboot 7-1,text,true,,240,245,1,10,http://benchmark-springboot-ita-exp.apps.ocpdevgra.dti.co.id/v1/pidigits,185,0,0
1689072575318,2486,Springboot,200,,Springboot 7-1,text,true,,259,247,1,10,http://benchmark-springboot-ita-exp.apps.ocpdevgra.dti.co.id/v1/pidigits,2486,0,0
1689072577804,1386,Springboot,200,,Springboot 7-1,text,true,,259,246,1,9,http://benchmark-springboot-ita-exp.apps.ocpdevgra.dti.co.id/v1/pidigits,1386,0,16
1689072579190,2254,Springboot,200,,Springboot 7-1,text,true,,258,246,1,8,http://benchmark-springboot-ita-exp.apps.ocpdevgra.dti.co.id/v1/pidigits,2254,0,17
1689072581444,34,Springboot,200,,Springboot 7-1,text,true,,238,240,1,8,http://benchmark-springboot-ita-exp.apps.ocpdevgra.dti.co.id/v1/pidigits,34,0,16
1689072581478,19,Springboot,200,,Springboot 7-1,text,true,,239,243,1,8,http://benchmark-springboot-ita-exp.apps.ocpdevgra.dti.co.id/v1/pidigits,19,0,0
1689072581497,1714,Springboot,200,,Springboot 7-1,text,true,,240,246,1,5,http://benchmark-springboot-ita-exp.apps.ocpdevgra.dti.co.id/v1/pidigits,1714,0,0
1689072583211,1369,Springboot,200,,Springboot 7-1,text,true,,240,246,1,5,http://benchmark-springboot-ita-exp.apps.ocpdevgra.dti.co.id/v1/pidigits,1368,0,0
1689072584580,174,Springboot,200,,Springboot 7-1,text,true,,240,245,1,5,http://benchmark-springboot-ita-exp.apps.ocpdevgra.dti.co.id/v1/pidigits,174,0,0
1689072584754,34,Springboot,200,,Springboot 7-1,text,true,,239,244,1,5,http://benchmark-springboot-ita-exp.apps.ocpdevgra.dti.co.id/v1/pidigits,34,0,0
1689072584788,19,Springboot,200,,Springboot 7-1,text,true,,240,243,1,5,http://benchmark-springboot-ita-exp.apps.ocpdevgra.dti.co.id/v1/pidigits,19,0,0
1689072584807,16,Springboot,200,,Springboot 7-1,text,true,,240,242,1,5,http://benchmark-springboot-ita-exp.apps.ocpdevgra.dti.co.id/v1/pidigits,16,0,0
1689072584824,16,Springboot,200,,Springboot 7-1,text,true,,240,241,1,5,http://benchmark-springboot-ita-exp.apps.ocpdevgra.dti.co.id/v1/pidigits,16,0,0
1689072584840,16,Springboot,200,,Springboot 7-1,text,true,,239,240,1,5,http://benchmark-springboot-ita-exp.apps.ocpdevgra.dti.co.id/v1/pidigits,16,0,0
1689072584856,16,Springboot,200,,Springboot 7-1,text,true,,240,241,1,5,http://benchmark-springboot-ita-exp.apps.ocpdevgra.dti.co.id/v1/pidigits,16,0,0
1689072584873,16,Springboot,200,,Springboot 7-1,text,true,,240,242,1,5,http://benchmark-springboot-ita-exp.apps.ocpdevgra.dti.co.id/v1/pidigits,16,0,0
1689072584889,19,Springboot,200,,Springboot 7-1,text,true,,240,243,1,5,http://benchmark-springboot-ita-exp.apps.ocpdevgra.dti.co.id/v1/pidigits,19,0,0
1689072584908,37,Springboot,200,,Springboot 7-1,text,true,,238,244,1,5,http://benchmark-springboot-ita-exp.apps.ocpdevgra.dti.co.id/v1/pidigits,37,0,0
1689072584945,110,Springboot,200,,Springboot 7-1,text,true,,239,245,1,5,http://benchmark-springboot-ita-exp.apps.ocpdevgra.dti.co.id/v1/pidigits,110,0,0
1689072585055,2221,Springboot,200,,Springboot 7-1,text,true,,257,246,1,5,http://benchmark-springboot-ita-exp.apps.ocpdevgra.dti.co.id/v1/pidigits,2221,0,0
1689072587276,2500,Springboot,200,,Springboot 7-1,text,true,,240,247,1,4,http://benchmark-springboot-ita-exp.apps.ocpdevgra.dti.co.id/v1/pidigits,2500,0,17
1689072589776,2499,Springboot,200,,Springboot 7-1,text,true,,259,247,1,4,http://benchmark-springboot-ita-exp.apps.ocpdevgra.dti.co.id/v1/pidigits,2499,0,0
1689072592275,192,Springboot,200,,Springboot 7-1,text,true,,240,245,1,4,http://benchmark-springboot-ita-exp.apps.ocpdevgra.dti.co.id/v1/pidigits,192,0,16
1689072592467,34,Springboot,200,,Springboot 7-1,text,true,,239,244,1,4,http://benchmark-springboot-ita-exp.apps.ocpdevgra.dti.co.id/v1/pidigits,34,0,0
1689072592501,19,Springboot,200,,Springboot 7-1,text,true,,240,243,1,4,http://benchmark-springboot-ita-exp.apps.ocpdevgra.dti.co.id/v1/pidigits,19,0,0
1689072592520,17,Springboot,200,,Springboot 7-1,text,true,,240,242,1,4,http://benchmark-springboot-ita-exp.apps.ocpdevgra.dti.co.id/v1/pidigits,17,0,0
1689072592537,17,Springboot,200,,Springboot 7-1,text,true,,240,241,1,4,http://benchmark-springboot-ita-exp.apps.ocpdevgra.dti.co.id/v1/pidigits,17,0,0
1689072592555,16,Springboot,200,,Springboot 7-1,text,true,,239,240,1,4,http://benchmark-springboot-ita-exp.apps.ocpdevgra.dti.co.id/v1/pidigits,16,0,0
1689072592571,17,Springboot,200,,Springboot 7-1,text,true,,240,241,1,4,http://benchmark-springboot-ita-exp.apps.ocpdevgra.dti.co.id/v1/pidigits,17,0,0
1689072592588,17,Springboot,200,,Springboot 7-1,text,true,,240,242,1,4,http://benchmark-springboot-ita-exp.apps.ocpdevgra.dti.co.id/v1/pidigits,17,0,0
1689072592605,18,Springboot,200,,Springboot 7-1,text,true,,240,243,1,4,http://benchmark-springboot-ita-exp.apps.ocpdevgra.dti.co.id/v1/pidigits,18,0,0
1689072592623,37,Springboot,200,,Springboot 7-1,text,true,,238,244,1,4,http://benchmark-springboot-ita-exp.apps.ocpdevgra.dti.co.id/v1/pidigits,37,0,0
1689072592660,110,Springboot,200,,Springboot 7-1,text,true,,239,245,1,4,http://benchmark-springboot-ita-exp.apps.ocpdevgra.dti.co.id/v1/pidigits,110,0,0
1689072592771,2225,Springboot,200,,Springboot 7-1,text,true,,238,246,1,4,http://benchmark-springboot-ita-exp.apps.ocpdevgra.dti.co.id/v1/pidigits,2225,0,0
1689072594996,2242,Springboot,200,,Springboot 7-1,text,true,,239,246,1,3,http://benchmark-springboot-ita-exp.apps.ocpdevgra.dti.co.id/v1/pidigits,2242,0,0
1689072597240,16,Springboot,200,,Springboot 7-1,text,true,,239,240,1,3,http://benchmark-springboot-ita-exp.apps.ocpdevgra.dti.co.id/v1/pidigits,16,0,0
1689072597256,17,Springboot,200,,Springboot 7-1,text,true,,240,241,1,3,http://benchmark-springboot-ita-exp.apps.ocpdevgra.dti.co.id/v1/pidigits,17,0,0
1689072597273,16,Springboot,200,,Springboot 7-1,text,true,,239,242,1,3,http://benchmark-springboot-ita-exp.apps.ocpdevgra.dti.co.id/v1/pidigits,16,0,0
