C:\Users\u072483\Documents\Benchmark_Microservice_Programming_Language\latest\java\src\main\java\ita\benchmark\BenchmarkApplication.java
C:\Users\u072483\Documents\Benchmark_Microservice_Programming_Language\latest\java\src\main\java\ita\benchmark\controller\Controller.java
C:\Users\u072483\Documents\Benchmark_Microservice_Programming_Language\latest\java\src\main\java\ita\benchmark\service\SortService.java
C:\Users\u072483\Documents\Benchmark_Microservice_Programming_Language\latest\java\src\main\java\ita\benchmark\dto\PiDigitsDto.java
C:\Users\u072483\Documents\Benchmark_Microservice_Programming_Language\latest\java\src\main\java\ita\benchmark\service\DecryptionService.java
C:\Users\u072483\Documents\Benchmark_Microservice_Programming_Language\latest\java\src\main\java\ita\benchmark\dto\BubbleSortDto.java
C:\Users\u072483\Documents\Benchmark_Microservice_Programming_Language\latest\java\src\main\java\ita\benchmark\service\EncryptionService.java
