timeStamp,elapsed,label,responseCode,responseMessage,threadName,dataType,success,failureMessage,bytes,sentBytes,grpThreads,allThreads,URL,Latency,IdleTime,Connect
1689307811485,203,HTTP Request,200,OK,Express 8-1,text,true,,224,494,1,1,http://benchmark-quarkus-ita-exp.apps.ocpdevgra.dti.co.id/v1/encrypt,203,0,16
1689307811689,186,HTTP Request,200,OK,Express 8-1,text,true,,224,494,1,1,http://benchmark-quarkus-ita-exp.apps.ocpdevgra.dti.co.id/v1/encrypt,186,0,0
1689307811875,185,HTTP Request,200,OK,Express 8-1,text,true,,223,494,1,1,http://benchmark-quarkus-ita-exp.apps.ocpdevgra.dti.co.id/v1/encrypt,185,0,0
1689307812060,195,HTTP Request,200,OK,Express 8-1,text,true,,224,494,1,1,http://benchmark-quarkus-ita-exp.apps.ocpdevgra.dti.co.id/v1/encrypt,195,0,0
1689307812255,196,HTTP Request,200,OK,Express 8-1,text,true,,224,494,1,1,http://benchmark-quarkus-ita-exp.apps.ocpdevgra.dti.co.id/v1/encrypt,195,0,0
1689307812451,186,HTTP Request,200,OK,Express 8-1,text,true,,224,494,1,1,http://benchmark-quarkus-ita-exp.apps.ocpdevgra.dti.co.id/v1/encrypt,186,0,0
1689307812638,184,HTTP Request,200,OK,Express 8-1,text,true,,223,494,1,1,http://benchmark-quarkus-ita-exp.apps.ocpdevgra.dti.co.id/v1/encrypt,184,0,0
1689307812822,186,HTTP Request,200,OK,Express 8-1,text,true,,224,494,1,1,http://benchmark-quarkus-ita-exp.apps.ocpdevgra.dti.co.id/v1/encrypt,185,0,0
1689307813008,185,HTTP Request,200,OK,Express 8-1,text,true,,223,494,1,1,http://benchmark-quarkus-ita-exp.apps.ocpdevgra.dti.co.id/v1/encrypt,185,0,0
1689307813193,185,HTTP Request,200,OK,Express 8-1,text,true,,224,494,1,1,http://benchmark-quarkus-ita-exp.apps.ocpdevgra.dti.co.id/v1/encrypt,185,0,0
1689307813379,184,HTTP Request,200,OK,Express 8-1,text,true,,224,494,1,1,http://benchmark-quarkus-ita-exp.apps.ocpdevgra.dti.co.id/v1/encrypt,183,0,0
1689307813563,195,HTTP Request,200,OK,Express 8-1,text,true,,223,494,1,1,http://benchmark-quarkus-ita-exp.apps.ocpdevgra.dti.co.id/v1/encrypt,195,0,0
1689307813758,188,HTTP Request,200,OK,Express 8-1,text,true,,224,494,1,1,http://benchmark-quarkus-ita-exp.apps.ocpdevgra.dti.co.id/v1/encrypt,188,0,0
1689307813946,185,HTTP Request,200,OK,Express 8-1,text,true,,224,494,1,1,http://benchmark-quarkus-ita-exp.apps.ocpdevgra.dti.co.id/v1/encrypt,185,0,0
1689307814131,196,HTTP Request,200,OK,Express 8-1,text,true,,224,494,1,1,http://benchmark-quarkus-ita-exp.apps.ocpdevgra.dti.co.id/v1/encrypt,196,0,0
1689307814327,184,HTTP Request,200,OK,Express 8-1,text,true,,224,494,1,1,http://benchmark-quarkus-ita-exp.apps.ocpdevgra.dti.co.id/v1/encrypt,184,0,0
1689307814511,185,HTTP Request,200,OK,Express 8-1,text,true,,224,494,1,1,http://benchmark-quarkus-ita-exp.apps.ocpdevgra.dti.co.id/v1/encrypt,185,0,0
1689307814696,184,HTTP Request,200,OK,Express 8-1,text,true,,224,494,1,1,http://benchmark-quarkus-ita-exp.apps.ocpdevgra.dti.co.id/v1/encrypt,184,0,0
1689307814880,184,HTTP Request,200,OK,Express 8-1,text,true,,224,494,1,1,http://benchmark-quarkus-ita-exp.apps.ocpdevgra.dti.co.id/v1/encrypt,184,0,0
1689307815064,184,HTTP Request,200,OK,Express 8-1,text,true,,224,494,1,1,http://benchmark-quarkus-ita-exp.apps.ocpdevgra.dti.co.id/v1/encrypt,184,0,0
1689307815248,183,HTTP Request,200,OK,Express 8-1,text,true,,223,494,1,1,http://benchmark-quarkus-ita-exp.apps.ocpdevgra.dti.co.id/v1/encrypt,183,0,0
1689307815432,185,HTTP Request,200,OK,Express 8-1,text,true,,224,494,1,1,http://benchmark-quarkus-ita-exp.apps.ocpdevgra.dti.co.id/v1/encrypt,185,0,0
1689307815617,184,HTTP Request,200,OK,Express 8-1,text,true,,224,494,1,1,http://benchmark-quarkus-ita-exp.apps.ocpdevgra.dti.co.id/v1/encrypt,184,0,0
1689307815802,185,HTTP Request,200,OK,Express 8-1,text,true,,224,494,1,1,http://benchmark-quarkus-ita-exp.apps.ocpdevgra.dti.co.id/v1/encrypt,185,0,0
1689307815987,185,HTTP Request,200,OK,Express 8-1,text,true,,224,494,1,1,http://benchmark-quarkus-ita-exp.apps.ocpdevgra.dti.co.id/v1/encrypt,185,0,0
1689307816172,190,HTTP Request,200,OK,Express 8-1,text,true,,223,494,1,1,http://benchmark-quarkus-ita-exp.apps.ocpdevgra.dti.co.id/v1/encrypt,190,0,0
1689307816363,185,HTTP Request,200,OK,Express 8-1,text,true,,224,494,1,1,http://benchmark-quarkus-ita-exp.apps.ocpdevgra.dti.co.id/v1/encrypt,185,0,0
1689307816548,200,HTTP Request,200,OK,Express 8-1,text,true,,224,494,1,1,http://benchmark-quarkus-ita-exp.apps.ocpdevgra.dti.co.id/v1/encrypt,200,0,0
1689307816748,184,HTTP Request,200,OK,Express 8-1,text,true,,223,494,1,1,http://benchmark-quarkus-ita-exp.apps.ocpdevgra.dti.co.id/v1/encrypt,184,0,0
1689307816932,185,HTTP Request,200,OK,Express 8-1,text,true,,224,494,1,1,http://benchmark-quarkus-ita-exp.apps.ocpdevgra.dti.co.id/v1/encrypt,185,0,0
1689307817118,184,HTTP Request,200,OK,Express 8-1,text,true,,223,494,1,1,http://benchmark-quarkus-ita-exp.apps.ocpdevgra.dti.co.id/v1/encrypt,184,0,0
1689307817302,185,HTTP Request,200,OK,Express 8-1,text,true,,224,494,1,1,http://benchmark-quarkus-ita-exp.apps.ocpdevgra.dti.co.id/v1/encrypt,185,0,0
1689307817487,190,HTTP Request,200,OK,Express 8-1,text,true,,224,494,1,1,http://benchmark-quarkus-ita-exp.apps.ocpdevgra.dti.co.id/v1/encrypt,190,0,0
1689307817678,185,HTTP Request,200,OK,Express 8-1,text,true,,224,494,1,1,http://benchmark-quarkus-ita-exp.apps.ocpdevgra.dti.co.id/v1/encrypt,185,0,0
1689307817862,185,HTTP Request,200,OK,Express 8-1,text,true,,223,494,1,1,http://benchmark-quarkus-ita-exp.apps.ocpdevgra.dti.co.id/v1/encrypt,185,0,0
1689307818047,184,HTTP Request,200,OK,Express 8-1,text,true,,224,494,1,1,http://benchmark-quarkus-ita-exp.apps.ocpdevgra.dti.co.id/v1/encrypt,184,0,0
1689307818231,200,HTTP Request,200,OK,Express 8-1,text,true,,224,494,1,1,http://benchmark-quarkus-ita-exp.apps.ocpdevgra.dti.co.id/v1/encrypt,200,0,0
1689307818431,185,HTTP Request,200,OK,Express 8-1,text,true,,223,494,1,1,http://benchmark-quarkus-ita-exp.apps.ocpdevgra.dti.co.id/v1/encrypt,185,0,0
1689307818616,188,HTTP Request,200,OK,Express 8-1,text,true,,224,494,1,1,http://benchmark-quarkus-ita-exp.apps.ocpdevgra.dti.co.id/v1/encrypt,188,0,0
1689307818804,185,HTTP Request,200,OK,Express 8-1,text,true,,224,494,1,1,http://benchmark-quarkus-ita-exp.apps.ocpdevgra.dti.co.id/v1/encrypt,185,0,0
1689307818989,189,HTTP Request,200,OK,Express 8-1,text,true,,224,494,1,1,http://benchmark-quarkus-ita-exp.apps.ocpdevgra.dti.co.id/v1/encrypt,189,0,0
1689307819178,186,HTTP Request,200,OK,Express 8-1,text,true,,224,494,1,1,http://benchmark-quarkus-ita-exp.apps.ocpdevgra.dti.co.id/v1/encrypt,186,0,0
1689307819364,183,HTTP Request,200,OK,Express 8-1,text,true,,224,494,1,1,http://benchmark-quarkus-ita-exp.apps.ocpdevgra.dti.co.id/v1/encrypt,183,0,0
1689307819547,191,HTTP Request,200,OK,Express 8-1,text,true,,224,494,1,1,http://benchmark-quarkus-ita-exp.apps.ocpdevgra.dti.co.id/v1/encrypt,191,0,0
1689307819738,185,HTTP Request,200,OK,Express 8-1,text,true,,224,494,1,1,http://benchmark-quarkus-ita-exp.apps.ocpdevgra.dti.co.id/v1/encrypt,185,0,0
1689307819923,184,HTTP Request,200,OK,Express 8-1,text,true,,224,494,1,1,http://benchmark-quarkus-ita-exp.apps.ocpdevgra.dti.co.id/v1/encrypt,184,0,0
1689307820107,184,HTTP Request,200,OK,Express 8-1,text,true,,224,494,1,1,http://benchmark-quarkus-ita-exp.apps.ocpdevgra.dti.co.id/v1/encrypt,184,0,0
1689307820291,185,HTTP Request,200,OK,Express 8-1,text,true,,224,494,1,1,http://benchmark-quarkus-ita-exp.apps.ocpdevgra.dti.co.id/v1/encrypt,185,0,0
1689307820477,188,HTTP Request,200,OK,Express 8-1,text,true,,224,494,1,1,http://benchmark-quarkus-ita-exp.apps.ocpdevgra.dti.co.id/v1/encrypt,188,0,0
1689307820665,190,HTTP Request,200,OK,Express 8-1,text,true,,223,494,1,1,http://benchmark-quarkus-ita-exp.apps.ocpdevgra.dti.co.id/v1/encrypt,190,0,0
1689307820855,184,HTTP Request,200,OK,Express 8-1,text,true,,224,494,1,1,http://benchmark-quarkus-ita-exp.apps.ocpdevgra.dti.co.id/v1/encrypt,184,0,0
1689307821039,184,HTTP Request,200,OK,Express 8-1,text,true,,223,494,1,1,http://benchmark-quarkus-ita-exp.apps.ocpdevgra.dti.co.id/v1/encrypt,184,0,0
1689307821223,184,HTTP Request,200,OK,Express 8-1,text,true,,224,494,1,1,http://benchmark-quarkus-ita-exp.apps.ocpdevgra.dti.co.id/v1/encrypt,184,0,0
1689307821407,185,HTTP Request,200,OK,Express 8-1,text,true,,223,494,1,1,http://benchmark-quarkus-ita-exp.apps.ocpdevgra.dti.co.id/v1/encrypt,185,0,0
1689307821593,184,HTTP Request,200,OK,Express 8-1,text,true,,223,494,1,1,http://benchmark-quarkus-ita-exp.apps.ocpdevgra.dti.co.id/v1/encrypt,184,0,0
1689307821777,185,HTTP Request,200,OK,Express 8-1,text,true,,224,494,1,1,http://benchmark-quarkus-ita-exp.apps.ocpdevgra.dti.co.id/v1/encrypt,185,0,0
1689307821962,189,HTTP Request,200,OK,Express 8-1,text,true,,224,494,1,1,http://benchmark-quarkus-ita-exp.apps.ocpdevgra.dti.co.id/v1/encrypt,189,0,0
1689307822151,194,HTTP Request,200,OK,Express 8-1,text,true,,224,494,1,1,http://benchmark-quarkus-ita-exp.apps.ocpdevgra.dti.co.id/v1/encrypt,194,0,0
1689307822346,186,HTTP Request,200,OK,Express 8-1,text,true,,224,494,1,1,http://benchmark-quarkus-ita-exp.apps.ocpdevgra.dti.co.id/v1/encrypt,186,0,0
1689307822532,254,HTTP Request,200,OK,Express 8-1,text,true,,224,494,1,1,http://benchmark-quarkus-ita-exp.apps.ocpdevgra.dti.co.id/v1/encrypt,254,0,0
1689307822786,187,HTTP Request,200,OK,Express 8-1,text,true,,223,494,1,1,http://benchmark-quarkus-ita-exp.apps.ocpdevgra.dti.co.id/v1/encrypt,187,0,0
1689307822974,186,HTTP Request,200,OK,Express 8-1,text,true,,224,494,1,1,http://benchmark-quarkus-ita-exp.apps.ocpdevgra.dti.co.id/v1/encrypt,186,0,0
1689307823160,186,HTTP Request,200,OK,Express 8-1,text,true,,224,494,1,1,http://benchmark-quarkus-ita-exp.apps.ocpdevgra.dti.co.id/v1/encrypt,186,0,0
1689307823346,185,HTTP Request,200,OK,Express 8-1,text,true,,224,494,1,1,http://benchmark-quarkus-ita-exp.apps.ocpdevgra.dti.co.id/v1/encrypt,185,0,0
1689307823531,184,HTTP Request,200,OK,Express 8-1,text,true,,224,494,1,1,http://benchmark-quarkus-ita-exp.apps.ocpdevgra.dti.co.id/v1/encrypt,184,0,0
1689307823716,184,HTTP Request,200,OK,Express 8-1,text,true,,224,494,1,1,http://benchmark-quarkus-ita-exp.apps.ocpdevgra.dti.co.id/v1/encrypt,184,0,0
1689307823901,183,HTTP Request,200,OK,Express 8-1,text,true,,224,494,1,1,http://benchmark-quarkus-ita-exp.apps.ocpdevgra.dti.co.id/v1/encrypt,183,0,0
1689307824084,186,HTTP Request,200,OK,Express 8-1,text,true,,224,494,1,1,http://benchmark-quarkus-ita-exp.apps.ocpdevgra.dti.co.id/v1/encrypt,186,0,0
1689307824270,190,HTTP Request,200,OK,Express 8-1,text,true,,224,494,1,1,http://benchmark-quarkus-ita-exp.apps.ocpdevgra.dti.co.id/v1/encrypt,190,0,0
1689307824461,184,HTTP Request,200,OK,Express 8-1,text,true,,224,494,1,1,http://benchmark-quarkus-ita-exp.apps.ocpdevgra.dti.co.id/v1/encrypt,184,0,0
1689307824646,184,HTTP Request,200,OK,Express 8-1,text,true,,223,494,1,1,http://benchmark-quarkus-ita-exp.apps.ocpdevgra.dti.co.id/v1/encrypt,184,0,0
1689307824830,244,HTTP Request,200,OK,Express 8-1,text,true,,224,494,1,1,http://benchmark-quarkus-ita-exp.apps.ocpdevgra.dti.co.id/v1/encrypt,244,0,0
1689307825074,184,HTTP Request,200,OK,Express 8-1,text,true,,224,494,1,1,http://benchmark-quarkus-ita-exp.apps.ocpdevgra.dti.co.id/v1/encrypt,184,0,0
1689307825258,189,HTTP Request,200,OK,Express 8-1,text,true,,224,494,1,1,http://benchmark-quarkus-ita-exp.apps.ocpdevgra.dti.co.id/v1/encrypt,189,0,0
1689307825447,184,HTTP Request,200,OK,Express 8-1,text,true,,224,494,1,1,http://benchmark-quarkus-ita-exp.apps.ocpdevgra.dti.co.id/v1/encrypt,184,0,0
1689307825632,188,HTTP Request,200,OK,Express 8-1,text,true,,224,494,1,1,http://benchmark-quarkus-ita-exp.apps.ocpdevgra.dti.co.id/v1/encrypt,188,0,0
1689307825820,186,HTTP Request,200,OK,Express 8-1,text,true,,224,494,1,1,http://benchmark-quarkus-ita-exp.apps.ocpdevgra.dti.co.id/v1/encrypt,186,0,0
1689307826006,185,HTTP Request,200,OK,Express 8-1,text,true,,224,494,1,1,http://benchmark-quarkus-ita-exp.apps.ocpdevgra.dti.co.id/v1/encrypt,185,0,0
1689307826191,183,HTTP Request,200,OK,Express 8-1,text,true,,224,494,1,1,http://benchmark-quarkus-ita-exp.apps.ocpdevgra.dti.co.id/v1/encrypt,183,0,0
1689307826375,192,HTTP Request,200,OK,Express 8-1,text,true,,223,494,1,1,http://benchmark-quarkus-ita-exp.apps.ocpdevgra.dti.co.id/v1/encrypt,192,0,0
1689307826567,184,HTTP Request,200,OK,Express 8-1,text,true,,224,494,1,1,http://benchmark-quarkus-ita-exp.apps.ocpdevgra.dti.co.id/v1/encrypt,184,0,0
1689307826751,184,HTTP Request,200,OK,Express 8-1,text,true,,224,494,1,1,http://benchmark-quarkus-ita-exp.apps.ocpdevgra.dti.co.id/v1/encrypt,184,0,0
1689307826935,184,HTTP Request,200,OK,Express 8-1,text,true,,224,494,1,1,http://benchmark-quarkus-ita-exp.apps.ocpdevgra.dti.co.id/v1/encrypt,184,0,0
1689307827119,184,HTTP Request,200,OK,Express 8-1,text,true,,224,494,1,1,http://benchmark-quarkus-ita-exp.apps.ocpdevgra.dti.co.id/v1/encrypt,184,0,0
1689307827303,185,HTTP Request,200,OK,Express 8-1,text,true,,224,494,1,1,http://benchmark-quarkus-ita-exp.apps.ocpdevgra.dti.co.id/v1/encrypt,185,0,0
1689307827488,185,HTTP Request,200,OK,Express 8-1,text,true,,224,494,1,1,http://benchmark-quarkus-ita-exp.apps.ocpdevgra.dti.co.id/v1/encrypt,185,0,0
1689307827673,186,HTTP Request,200,OK,Express 8-1,text,true,,224,494,1,1,http://benchmark-quarkus-ita-exp.apps.ocpdevgra.dti.co.id/v1/encrypt,186,0,0
1689307827859,186,HTTP Request,200,OK,Express 8-1,text,true,,224,494,1,1,http://benchmark-quarkus-ita-exp.apps.ocpdevgra.dti.co.id/v1/encrypt,186,0,0
1689307828045,187,HTTP Request,200,OK,Express 8-1,text,true,,224,494,1,1,http://benchmark-quarkus-ita-exp.apps.ocpdevgra.dti.co.id/v1/encrypt,187,0,0
1689307828232,183,HTTP Request,200,OK,Express 8-1,text,true,,223,494,1,1,http://benchmark-quarkus-ita-exp.apps.ocpdevgra.dti.co.id/v1/encrypt,183,0,0
1689307828415,185,HTTP Request,200,OK,Express 8-1,text,true,,224,494,1,1,http://benchmark-quarkus-ita-exp.apps.ocpdevgra.dti.co.id/v1/encrypt,185,0,0
1689307828600,188,HTTP Request,200,OK,Express 8-1,text,true,,224,494,1,1,http://benchmark-quarkus-ita-exp.apps.ocpdevgra.dti.co.id/v1/encrypt,188,0,0
1689307828789,185,HTTP Request,200,OK,Express 8-1,text,true,,224,494,1,1,http://benchmark-quarkus-ita-exp.apps.ocpdevgra.dti.co.id/v1/encrypt,185,0,0
1689307828974,185,HTTP Request,200,OK,Express 8-1,text,true,,224,494,1,1,http://benchmark-quarkus-ita-exp.apps.ocpdevgra.dti.co.id/v1/encrypt,185,0,0
1689307829159,185,HTTP Request,200,OK,Express 8-1,text,true,,224,494,1,1,http://benchmark-quarkus-ita-exp.apps.ocpdevgra.dti.co.id/v1/encrypt,185,0,0
1689307829344,184,HTTP Request,200,OK,Express 8-1,text,true,,224,494,1,1,http://benchmark-quarkus-ita-exp.apps.ocpdevgra.dti.co.id/v1/encrypt,184,0,0
1689307829528,184,HTTP Request,200,OK,Express 8-1,text,true,,223,494,1,1,http://benchmark-quarkus-ita-exp.apps.ocpdevgra.dti.co.id/v1/encrypt,184,0,0
1689307829712,184,HTTP Request,200,OK,Express 8-1,text,true,,224,494,1,1,http://benchmark-quarkus-ita-exp.apps.ocpdevgra.dti.co.id/v1/encrypt,184,0,0
1689307829896,185,HTTP Request,200,OK,Express 8-1,text,true,,224,494,1,1,http://benchmark-quarkus-ita-exp.apps.ocpdevgra.dti.co.id/v1/encrypt,185,0,0
1689307830081,185,HTTP Request,200,OK,Express 8-1,text,true,,224,494,1,1,http://benchmark-quarkus-ita-exp.apps.ocpdevgra.dti.co.id/v1/encrypt,185,0,0
