timeStamp,elapsed,label,responseCode,responseMessage,threadName,dataType,success,failureMessage,bytes,sentBytes,grpThreads,allThreads,URL,Latency,IdleTime,Connect
1689307787367,282,HTTP Request,200,OK,Quarkus 7-1,text,true,,224,494,1,1,http://benchmark-quarkus-ita-exp.apps.ocpdevgra.dti.co.id/v1/encrypt,282,0,17
1689307787650,315,HTTP Request,200,OK,Quarkus 7-1,text,true,,223,494,1,1,http://benchmark-quarkus-ita-exp.apps.ocpdevgra.dti.co.id/v1/encrypt,315,0,0
1689307787966,284,HTTP Request,200,OK,Quarkus 7-1,text,true,,224,494,1,1,http://benchmark-quarkus-ita-exp.apps.ocpdevgra.dti.co.id/v1/encrypt,284,0,0
1689307788250,247,HTTP Request,200,OK,Quarkus 7-1,text,true,,224,494,1,1,http://benchmark-quarkus-ita-exp.apps.ocpdevgra.dti.co.id/v1/encrypt,247,0,0
1689307788497,267,HTTP Request,200,OK,Quarkus 7-1,text,true,,223,494,1,1,http://benchmark-quarkus-ita-exp.apps.ocpdevgra.dti.co.id/v1/encrypt,267,0,0
1689307788764,279,HTTP Request,200,OK,Quarkus 7-1,text,true,,224,494,1,1,http://benchmark-quarkus-ita-exp.apps.ocpdevgra.dti.co.id/v1/encrypt,279,0,0
1689307789043,267,HTTP Request,200,OK,Quarkus 7-1,text,true,,224,494,1,1,http://benchmark-quarkus-ita-exp.apps.ocpdevgra.dti.co.id/v1/encrypt,267,0,0
1689307789310,287,HTTP Request,200,OK,Quarkus 7-1,text,true,,224,494,1,1,http://benchmark-quarkus-ita-exp.apps.ocpdevgra.dti.co.id/v1/encrypt,286,0,0
1689307789597,273,HTTP Request,200,OK,Quarkus 7-1,text,true,,224,494,1,1,http://benchmark-quarkus-ita-exp.apps.ocpdevgra.dti.co.id/v1/encrypt,273,0,0
1689307789870,283,HTTP Request,200,OK,Quarkus 7-1,text,true,,224,494,1,1,http://benchmark-quarkus-ita-exp.apps.ocpdevgra.dti.co.id/v1/encrypt,283,0,0
1689307790154,280,HTTP Request,200,OK,Quarkus 7-1,text,true,,224,494,1,1,http://benchmark-quarkus-ita-exp.apps.ocpdevgra.dti.co.id/v1/encrypt,280,0,0
1689307790434,297,HTTP Request,200,OK,Quarkus 7-1,text,true,,224,494,1,1,http://benchmark-quarkus-ita-exp.apps.ocpdevgra.dti.co.id/v1/encrypt,297,0,0
1689307790731,259,HTTP Request,200,OK,Quarkus 7-1,text,true,,224,494,1,1,http://benchmark-quarkus-ita-exp.apps.ocpdevgra.dti.co.id/v1/encrypt,259,0,0
1689307790991,289,HTTP Request,200,OK,Quarkus 7-1,text,true,,224,494,1,1,http://benchmark-quarkus-ita-exp.apps.ocpdevgra.dti.co.id/v1/encrypt,289,0,0
1689307791280,285,HTTP Request,200,OK,Quarkus 7-1,text,true,,224,494,1,1,http://benchmark-quarkus-ita-exp.apps.ocpdevgra.dti.co.id/v1/encrypt,285,0,0
1689307791565,250,HTTP Request,200,OK,Quarkus 7-1,text,true,,224,494,1,1,http://benchmark-quarkus-ita-exp.apps.ocpdevgra.dti.co.id/v1/encrypt,250,0,0
1689307791815,267,HTTP Request,200,OK,Quarkus 7-1,text,true,,224,494,1,1,http://benchmark-quarkus-ita-exp.apps.ocpdevgra.dti.co.id/v1/encrypt,267,0,0
1689307792082,269,HTTP Request,200,OK,Quarkus 7-1,text,true,,224,494,1,1,http://benchmark-quarkus-ita-exp.apps.ocpdevgra.dti.co.id/v1/encrypt,269,0,0
1689307792351,264,HTTP Request,200,OK,Quarkus 7-1,text,true,,224,494,1,1,http://benchmark-quarkus-ita-exp.apps.ocpdevgra.dti.co.id/v1/encrypt,264,0,0
1689307792615,278,HTTP Request,200,OK,Quarkus 7-1,text,true,,223,494,1,1,http://benchmark-quarkus-ita-exp.apps.ocpdevgra.dti.co.id/v1/encrypt,278,0,0
1689307792892,271,HTTP Request,200,OK,Quarkus 7-1,text,true,,224,494,1,1,http://benchmark-quarkus-ita-exp.apps.ocpdevgra.dti.co.id/v1/encrypt,271,0,0
1689307793163,247,HTTP Request,200,OK,Quarkus 7-1,text,true,,224,494,1,1,http://benchmark-quarkus-ita-exp.apps.ocpdevgra.dti.co.id/v1/encrypt,247,0,0
1689307793410,304,HTTP Request,200,OK,Quarkus 7-1,text,true,,224,494,1,1,http://benchmark-quarkus-ita-exp.apps.ocpdevgra.dti.co.id/v1/encrypt,304,0,0
1689307793714,244,HTTP Request,200,OK,Quarkus 7-1,text,true,,224,494,1,1,http://benchmark-quarkus-ita-exp.apps.ocpdevgra.dti.co.id/v1/encrypt,244,0,0
1689307793958,259,HTTP Request,200,OK,Quarkus 7-1,text,true,,224,494,1,1,http://benchmark-quarkus-ita-exp.apps.ocpdevgra.dti.co.id/v1/encrypt,259,0,0
1689307794217,280,HTTP Request,200,OK,Quarkus 7-1,text,true,,224,494,1,1,http://benchmark-quarkus-ita-exp.apps.ocpdevgra.dti.co.id/v1/encrypt,280,0,0
1689307794497,262,HTTP Request,200,OK,Quarkus 7-1,text,true,,224,494,1,1,http://benchmark-quarkus-ita-exp.apps.ocpdevgra.dti.co.id/v1/encrypt,262,0,0
1689307794759,260,HTTP Request,200,OK,Quarkus 7-1,text,true,,224,494,1,1,http://benchmark-quarkus-ita-exp.apps.ocpdevgra.dti.co.id/v1/encrypt,260,0,0
1689307795019,260,HTTP Request,200,OK,Quarkus 7-1,text,true,,224,494,1,1,http://benchmark-quarkus-ita-exp.apps.ocpdevgra.dti.co.id/v1/encrypt,260,0,0
1689307795279,246,HTTP Request,200,OK,Quarkus 7-1,text,true,,224,494,1,1,http://benchmark-quarkus-ita-exp.apps.ocpdevgra.dti.co.id/v1/encrypt,246,0,0
1689307795525,280,HTTP Request,200,OK,Quarkus 7-1,text,true,,224,494,1,1,http://benchmark-quarkus-ita-exp.apps.ocpdevgra.dti.co.id/v1/encrypt,280,0,0
1689307795805,261,HTTP Request,200,OK,Quarkus 7-1,text,true,,224,494,1,1,http://benchmark-quarkus-ita-exp.apps.ocpdevgra.dti.co.id/v1/encrypt,261,0,0
1689307796066,269,HTTP Request,200,OK,Quarkus 7-1,text,true,,224,494,1,1,http://benchmark-quarkus-ita-exp.apps.ocpdevgra.dti.co.id/v1/encrypt,269,0,0
1689307796335,259,HTTP Request,200,OK,Quarkus 7-1,text,true,,224,494,1,1,http://benchmark-quarkus-ita-exp.apps.ocpdevgra.dti.co.id/v1/encrypt,259,0,0
1689307796594,295,HTTP Request,200,OK,Quarkus 7-1,text,true,,224,494,1,1,http://benchmark-quarkus-ita-exp.apps.ocpdevgra.dti.co.id/v1/encrypt,295,0,0
1689307796889,304,HTTP Request,200,OK,Quarkus 7-1,text,true,,224,494,1,1,http://benchmark-quarkus-ita-exp.apps.ocpdevgra.dti.co.id/v1/encrypt,304,0,0
1689307797194,276,HTTP Request,200,OK,Quarkus 7-1,text,true,,224,494,1,1,http://benchmark-quarkus-ita-exp.apps.ocpdevgra.dti.co.id/v1/encrypt,276,0,0
1689307797470,256,HTTP Request,200,OK,Quarkus 7-1,text,true,,224,494,1,1,http://benchmark-quarkus-ita-exp.apps.ocpdevgra.dti.co.id/v1/encrypt,256,0,0
1689307797726,297,HTTP Request,200,OK,Quarkus 7-1,text,true,,224,494,1,1,http://benchmark-quarkus-ita-exp.apps.ocpdevgra.dti.co.id/v1/encrypt,297,0,0
1689307798024,257,HTTP Request,200,OK,Quarkus 7-1,text,true,,224,494,1,1,http://benchmark-quarkus-ita-exp.apps.ocpdevgra.dti.co.id/v1/encrypt,257,0,0
1689307798281,282,HTTP Request,200,OK,Quarkus 7-1,text,true,,224,494,1,1,http://benchmark-quarkus-ita-exp.apps.ocpdevgra.dti.co.id/v1/encrypt,282,0,0
1689307798563,236,HTTP Request,200,OK,Quarkus 7-1,text,true,,224,494,1,1,http://benchmark-quarkus-ita-exp.apps.ocpdevgra.dti.co.id/v1/encrypt,236,0,0
1689307798800,298,HTTP Request,200,OK,Quarkus 7-1,text,true,,223,494,1,1,http://benchmark-quarkus-ita-exp.apps.ocpdevgra.dti.co.id/v1/encrypt,298,0,0
1689307799098,272,HTTP Request,200,OK,Quarkus 7-1,text,true,,224,494,1,1,http://benchmark-quarkus-ita-exp.apps.ocpdevgra.dti.co.id/v1/encrypt,272,0,0
1689307799370,250,HTTP Request,200,OK,Quarkus 7-1,text,true,,224,494,1,1,http://benchmark-quarkus-ita-exp.apps.ocpdevgra.dti.co.id/v1/encrypt,250,0,0
1689307799620,269,HTTP Request,200,OK,Quarkus 7-1,text,true,,224,494,1,1,http://benchmark-quarkus-ita-exp.apps.ocpdevgra.dti.co.id/v1/encrypt,269,0,0
1689307799889,298,HTTP Request,200,OK,Quarkus 7-1,text,true,,224,494,1,1,http://benchmark-quarkus-ita-exp.apps.ocpdevgra.dti.co.id/v1/encrypt,298,0,0
1689307800187,282,HTTP Request,200,OK,Quarkus 7-1,text,true,,224,494,1,1,http://benchmark-quarkus-ita-exp.apps.ocpdevgra.dti.co.id/v1/encrypt,282,0,0
1689307800469,284,HTTP Request,200,OK,Quarkus 7-1,text,true,,224,494,1,1,http://benchmark-quarkus-ita-exp.apps.ocpdevgra.dti.co.id/v1/encrypt,284,0,0
1689307800753,301,HTTP Request,200,OK,Quarkus 7-1,text,true,,224,494,1,1,http://benchmark-quarkus-ita-exp.apps.ocpdevgra.dti.co.id/v1/encrypt,301,0,0
1689307801054,292,HTTP Request,200,OK,Quarkus 7-1,text,true,,224,494,1,1,http://benchmark-quarkus-ita-exp.apps.ocpdevgra.dti.co.id/v1/encrypt,292,0,0
1689307801346,546,HTTP Request,200,OK,Quarkus 7-1,text,true,,224,494,1,1,http://benchmark-quarkus-ita-exp.apps.ocpdevgra.dti.co.id/v1/encrypt,546,0,0
1689307801892,348,HTTP Request,200,OK,Quarkus 7-1,text,true,,223,494,1,1,http://benchmark-quarkus-ita-exp.apps.ocpdevgra.dti.co.id/v1/encrypt,348,0,0
1689307802241,273,HTTP Request,200,OK,Quarkus 7-1,text,true,,224,494,1,1,http://benchmark-quarkus-ita-exp.apps.ocpdevgra.dti.co.id/v1/encrypt,273,0,0
1689307802515,274,HTTP Request,200,OK,Quarkus 7-1,text,true,,224,494,1,1,http://benchmark-quarkus-ita-exp.apps.ocpdevgra.dti.co.id/v1/encrypt,274,0,0
1689307802789,275,HTTP Request,200,OK,Quarkus 7-1,text,true,,224,494,1,1,http://benchmark-quarkus-ita-exp.apps.ocpdevgra.dti.co.id/v1/encrypt,275,0,0
1689307803064,291,HTTP Request,200,OK,Quarkus 7-1,text,true,,224,494,1,1,http://benchmark-quarkus-ita-exp.apps.ocpdevgra.dti.co.id/v1/encrypt,291,0,0
1689307803355,237,HTTP Request,200,OK,Quarkus 7-1,text,true,,224,494,1,1,http://benchmark-quarkus-ita-exp.apps.ocpdevgra.dti.co.id/v1/encrypt,237,0,0
1689307803592,200,HTTP Request,200,OK,Quarkus 7-1,text,true,,224,494,1,1,http://benchmark-quarkus-ita-exp.apps.ocpdevgra.dti.co.id/v1/encrypt,200,0,0
1689307803792,192,HTTP Request,200,OK,Quarkus 7-1,text,true,,224,494,1,1,http://benchmark-quarkus-ita-exp.apps.ocpdevgra.dti.co.id/v1/encrypt,192,0,0
1689307803984,186,HTTP Request,200,OK,Quarkus 7-1,text,true,,224,494,1,1,http://benchmark-quarkus-ita-exp.apps.ocpdevgra.dti.co.id/v1/encrypt,186,0,0
1689307804170,185,HTTP Request,200,OK,Quarkus 7-1,text,true,,224,494,1,1,http://benchmark-quarkus-ita-exp.apps.ocpdevgra.dti.co.id/v1/encrypt,185,0,0
1689307804355,188,HTTP Request,200,OK,Quarkus 7-1,text,true,,224,494,1,1,http://benchmark-quarkus-ita-exp.apps.ocpdevgra.dti.co.id/v1/encrypt,188,0,0
1689307804543,187,HTTP Request,200,OK,Quarkus 7-1,text,true,,224,494,1,1,http://benchmark-quarkus-ita-exp.apps.ocpdevgra.dti.co.id/v1/encrypt,187,0,0
1689307804730,192,HTTP Request,200,OK,Quarkus 7-1,text,true,,224,494,1,1,http://benchmark-quarkus-ita-exp.apps.ocpdevgra.dti.co.id/v1/encrypt,192,0,0
1689307804922,186,HTTP Request,200,OK,Quarkus 7-1,text,true,,224,494,1,1,http://benchmark-quarkus-ita-exp.apps.ocpdevgra.dti.co.id/v1/encrypt,186,0,0
1689307805108,195,HTTP Request,200,OK,Quarkus 7-1,text,true,,224,494,1,1,http://benchmark-quarkus-ita-exp.apps.ocpdevgra.dti.co.id/v1/encrypt,195,0,0
1689307805304,186,HTTP Request,200,OK,Quarkus 7-1,text,true,,223,494,1,1,http://benchmark-quarkus-ita-exp.apps.ocpdevgra.dti.co.id/v1/encrypt,186,0,0
1689307805490,186,HTTP Request,200,OK,Quarkus 7-1,text,true,,224,494,1,1,http://benchmark-quarkus-ita-exp.apps.ocpdevgra.dti.co.id/v1/encrypt,186,0,0
1689307805676,184,HTTP Request,200,OK,Quarkus 7-1,text,true,,224,494,1,1,http://benchmark-quarkus-ita-exp.apps.ocpdevgra.dti.co.id/v1/encrypt,184,0,0
1689307805860,184,HTTP Request,200,OK,Quarkus 7-1,text,true,,224,494,1,1,http://benchmark-quarkus-ita-exp.apps.ocpdevgra.dti.co.id/v1/encrypt,184,0,0
1689307806045,183,HTTP Request,200,OK,Quarkus 7-1,text,true,,223,494,1,1,http://benchmark-quarkus-ita-exp.apps.ocpdevgra.dti.co.id/v1/encrypt,183,0,0
1689307806229,183,HTTP Request,200,OK,Quarkus 7-1,text,true,,224,494,1,1,http://benchmark-quarkus-ita-exp.apps.ocpdevgra.dti.co.id/v1/encrypt,183,0,0
1689307806412,186,HTTP Request,200,OK,Quarkus 7-1,text,true,,224,494,1,1,http://benchmark-quarkus-ita-exp.apps.ocpdevgra.dti.co.id/v1/encrypt,186,0,0
1689307806598,185,HTTP Request,200,OK,Quarkus 7-1,text,true,,224,494,1,1,http://benchmark-quarkus-ita-exp.apps.ocpdevgra.dti.co.id/v1/encrypt,185,0,0
1689307806783,191,HTTP Request,200,OK,Quarkus 7-1,text,true,,224,494,1,1,http://benchmark-quarkus-ita-exp.apps.ocpdevgra.dti.co.id/v1/encrypt,191,0,0
1689307806974,184,HTTP Request,200,OK,Quarkus 7-1,text,true,,224,494,1,1,http://benchmark-quarkus-ita-exp.apps.ocpdevgra.dti.co.id/v1/encrypt,184,0,0
1689307807158,184,HTTP Request,200,OK,Quarkus 7-1,text,true,,224,494,1,1,http://benchmark-quarkus-ita-exp.apps.ocpdevgra.dti.co.id/v1/encrypt,184,0,0
1689307807342,183,HTTP Request,200,OK,Quarkus 7-1,text,true,,224,494,1,1,http://benchmark-quarkus-ita-exp.apps.ocpdevgra.dti.co.id/v1/encrypt,183,0,0
1689307807525,184,HTTP Request,200,OK,Quarkus 7-1,text,true,,224,494,1,1,http://benchmark-quarkus-ita-exp.apps.ocpdevgra.dti.co.id/v1/encrypt,184,0,0
1689307807709,185,HTTP Request,200,OK,Quarkus 7-1,text,true,,224,494,1,1,http://benchmark-quarkus-ita-exp.apps.ocpdevgra.dti.co.id/v1/encrypt,185,0,0
1689307807894,185,HTTP Request,200,OK,Quarkus 7-1,text,true,,224,494,1,1,http://benchmark-quarkus-ita-exp.apps.ocpdevgra.dti.co.id/v1/encrypt,185,0,0
1689307808079,189,HTTP Request,200,OK,Quarkus 7-1,text,true,,224,494,1,1,http://benchmark-quarkus-ita-exp.apps.ocpdevgra.dti.co.id/v1/encrypt,189,0,0
1689307808269,197,HTTP Request,200,OK,Quarkus 7-1,text,true,,224,494,1,1,http://benchmark-quarkus-ita-exp.apps.ocpdevgra.dti.co.id/v1/encrypt,197,0,0
1689307808466,186,HTTP Request,200,OK,Quarkus 7-1,text,true,,224,494,1,1,http://benchmark-quarkus-ita-exp.apps.ocpdevgra.dti.co.id/v1/encrypt,186,0,0
1689307808652,187,HTTP Request,200,OK,Quarkus 7-1,text,true,,224,494,1,1,http://benchmark-quarkus-ita-exp.apps.ocpdevgra.dti.co.id/v1/encrypt,187,0,0
1689307808839,187,HTTP Request,200,OK,Quarkus 7-1,text,true,,224,494,1,1,http://benchmark-quarkus-ita-exp.apps.ocpdevgra.dti.co.id/v1/encrypt,187,0,0
1689307809026,185,HTTP Request,200,OK,Quarkus 7-1,text,true,,224,494,1,1,http://benchmark-quarkus-ita-exp.apps.ocpdevgra.dti.co.id/v1/encrypt,185,0,0
1689307809212,190,HTTP Request,200,OK,Quarkus 7-1,text,true,,224,494,1,1,http://benchmark-quarkus-ita-exp.apps.ocpdevgra.dti.co.id/v1/encrypt,190,0,0
1689307809402,192,HTTP Request,200,OK,Quarkus 7-1,text,true,,224,494,1,1,http://benchmark-quarkus-ita-exp.apps.ocpdevgra.dti.co.id/v1/encrypt,192,0,0
1689307809594,184,HTTP Request,200,OK,Quarkus 7-1,text,true,,224,494,1,1,http://benchmark-quarkus-ita-exp.apps.ocpdevgra.dti.co.id/v1/encrypt,184,0,0
1689307809778,185,HTTP Request,200,OK,Quarkus 7-1,text,true,,224,494,1,1,http://benchmark-quarkus-ita-exp.apps.ocpdevgra.dti.co.id/v1/encrypt,185,0,0
1689307809963,186,HTTP Request,200,OK,Quarkus 7-1,text,true,,224,494,1,1,http://benchmark-quarkus-ita-exp.apps.ocpdevgra.dti.co.id/v1/encrypt,186,0,0
1689307810150,184,HTTP Request,200,OK,Quarkus 7-1,text,true,,223,494,1,1,http://benchmark-quarkus-ita-exp.apps.ocpdevgra.dti.co.id/v1/encrypt,184,0,0
1689307810334,190,HTTP Request,200,OK,Quarkus 7-1,text,true,,223,494,1,1,http://benchmark-quarkus-ita-exp.apps.ocpdevgra.dti.co.id/v1/encrypt,190,0,0
1689307810524,192,HTTP Request,200,OK,Quarkus 7-1,text,true,,224,494,1,1,http://benchmark-quarkus-ita-exp.apps.ocpdevgra.dti.co.id/v1/encrypt,192,0,0
1689307810716,186,HTTP Request,200,OK,Quarkus 7-1,text,true,,223,494,1,1,http://benchmark-quarkus-ita-exp.apps.ocpdevgra.dti.co.id/v1/encrypt,186,0,0
1689307810902,185,HTTP Request,200,OK,Quarkus 7-1,text,true,,224,494,1,1,http://benchmark-quarkus-ita-exp.apps.ocpdevgra.dti.co.id/v1/encrypt,185,0,0
1689307811088,185,HTTP Request,200,OK,Quarkus 7-1,text,true,,224,494,1,1,http://benchmark-quarkus-ita-exp.apps.ocpdevgra.dti.co.id/v1/encrypt,185,0,0
1689307811273,208,HTTP Request,200,OK,Quarkus 7-1,text,true,,224,494,1,1,http://benchmark-quarkus-ita-exp.apps.ocpdevgra.dti.co.id/v1/encrypt,208,0,0
