module benchmark/echo

go 1.20

require (
	github.com/labstack/echo/v4 v4.10.2
	golang.org/x/crypto v0.10.0
)

require github.com/labstack/echo v3.3.10+incompatible // indirect

require (
	github.com/labstack/gommon v0.4.0 // indirect
	github.com/mattn/go-colorable v0.1.13 // indirect
	github.com/mattn/go-isatty v0.0.19 // indirect
	github.com/stretchr/testify v1.8.3 // indirect
	github.com/valyala/bytebufferpool v1.0.0 // indirect
	github.com/valyala/fasttemplate v1.2.2 // indirect
	golang.org/x/net v0.10.0 // indirect
	golang.org/x/sys v0.9.0 // indirect
	golang.org/x/text v0.10.0 // indirect; indirectv
)
